<svg width="33" height="35" viewBox="0 0 33 35" fill="none" xmlns="http://www.w3.org/2000/svg">
<path d="M28.0521 5.3802C26.5392 3.82695 24.7375 2.59553 22.7521 1.75769C20.7666 0.919854 18.6371 0.492354 16.4876 0.500103C7.48069 0.500103 0.14025 7.96501 0.132 17.1293C0.132 20.0645 0.886875 22.92 2.31206 25.4482L0 34.0691L8.67075 31.757C11.0694 33.0849 13.7567 33.7809 16.4876 33.7817H16.4959C25.5049 33.7817 32.8433 26.3168 32.8515 17.144C32.8536 14.9579 32.4304 12.793 31.6063 10.7741C30.7822 8.75507 29.5736 6.92192 28.05 5.3802H28.0521ZM16.4876 30.9661C14.0518 30.9669 11.6608 30.3001 9.56588 29.0358L9.07087 28.7337L3.927 30.1059L5.30062 25.0013L4.97888 24.4747C3.61723 22.2724 2.89708 19.7226 2.90194 17.1209C2.90194 9.51338 9.00075 3.30731 16.4959 3.30731C18.2815 3.30405 20.05 3.66036 21.6996 4.35569C23.3492 5.05103 24.8471 6.07163 26.1071 7.35867C27.3715 8.64069 28.3738 10.1647 29.0563 11.8427C29.7388 13.5208 30.088 15.3196 30.0836 17.1356C30.0754 24.7705 23.9766 30.9661 16.4876 30.9661ZM23.9436 20.6142C23.5373 20.4065 21.5304 19.4015 21.153 19.2589C20.7776 19.1225 20.5033 19.0512 20.2352 19.4666C19.9609 19.8799 19.1771 20.8219 18.942 21.0926C18.7069 21.3716 18.4635 21.4031 18.0551 21.1975C17.6488 20.9877 16.3309 20.5513 14.7716 19.1309C13.5548 18.0294 12.7401 16.6657 12.4967 16.2524C12.2616 15.8369 12.474 15.6145 12.6782 15.4068C12.8576 15.2222 13.0845 14.9201 13.2887 14.6809C13.4949 14.4417 13.563 14.2655 13.6971 13.9885C13.8311 13.7074 13.7672 13.4682 13.6661 13.2605C13.563 13.0528 12.7483 11.003 12.4039 10.1764C12.0739 9.36022 11.7377 9.47351 11.4861 9.46302C11.2509 9.44834 10.9766 9.44834 10.7023 9.44834C10.4952 9.45357 10.2913 9.50231 10.1036 9.59149C9.9158 9.68067 9.74819 9.80836 9.61125 9.96656C9.23588 10.382 8.18606 11.3869 8.18606 13.4368C8.18606 15.4866 9.65044 17.4566 9.85669 17.7357C10.0588 18.0147 12.7318 22.2087 16.8341 24.0131C17.8035 24.4432 18.5666 24.6971 19.1627 24.8901C20.1424 25.209 21.0272 25.1607 21.7326 25.0579C22.5163 24.9362 24.1478 24.0508 24.4922 23.0794C24.8304 22.1059 24.8304 21.2751 24.7273 21.101C24.6263 20.9247 24.3519 20.8219 23.9436 20.6142Z" fill="#25D366"/>
</svg>
