<svg width="33" height="34" viewBox="0 0 33 34" fill="none" xmlns="http://www.w3.org/2000/svg">
<path d="M31.68 0.216797H1.32C0.589875 0.216797 0 0.806672 0 1.5368V31.8968C0 32.6269 0.589875 33.2168 1.32 33.2168H31.68C32.4101 33.2168 33 32.6269 33 31.8968V1.5368C33 0.806672 32.4101 0.216797 31.68 0.216797ZM27.8685 9.84867H25.2326C23.166 9.84867 22.7659 10.8304 22.7659 12.2742V15.4545H27.6994L27.0559 20.4334H22.7659V33.2168H17.622V20.4375H13.3196V15.4545H17.622V11.7833C17.622 7.52217 20.2249 5.1998 24.0281 5.1998C25.8514 5.1998 27.4148 5.33592 27.8726 5.3978V9.84867H27.8685Z" fill="white"/>
</svg>
