<svg width="33" height="35" viewBox="0 0 33 35" fill="none" xmlns="http://www.w3.org/2000/svg">
<path d="M31.68 0.5H1.32C0.589875 0.5 0 1.10005 0 1.84276V32.7262C0 33.4689 0.589875 34.069 1.32 34.069H31.68C32.4101 34.069 33 33.4689 33 32.7262V1.84276C33 1.10005 32.4101 0.5 31.68 0.5ZM27.8685 10.2979H25.2326C23.166 10.2979 22.7659 11.2966 22.7659 12.7653V16.0005H27.6994L27.0559 21.0652H22.7659V34.069H17.622V21.0694H13.3196V16.0005H17.622V12.2659C17.622 7.93133 20.2249 5.56891 24.0281 5.56891C25.8514 5.56891 27.4148 5.70739 27.8726 5.77033V10.2979H27.8685Z" fill="#3B5998"/>
</svg>
