<svg width="32" height="23" viewBox="0 0 32 23" fill="none" xmlns="http://www.w3.org/2000/svg">
<path d="M0 22.028H31.0824V18.5187H0V22.028ZM0 13.2547H31.0824V9.74544H0V13.2547ZM0 0.972168V4.48148H31.0824V0.972168H0Z" fill="white"/>
</svg>
