<svg width="1620" height="790" viewBox="0 0 1620 790" fill="none" xmlns="http://www.w3.org/2000/svg">
<path opacity="0.05" d="M0 0C507.58 42.44 1070.97 48.5047 1612.4 1.84313C1616.49 1.49059 1620 4.71505 1620 8.82082V781.365C1620 785.814 1615.99 789.175 1611.63 788.331C1560.35 778.43 1275.54 727.819 811.186 727.819C296.486 727.819 0 790 0 790V0Z" fill="#4B9D45"/>
</svg>
