<svg width="1366" height="717" viewBox="0 0 1366 717" fill="none" xmlns="http://www.w3.org/2000/svg">
<path d="M1515.91 164.225C1515.91 238.919 1456.15 299.449 1382.45 299.449C1308.76 299.449 1249 238.919 1249 164.225C1249 89.5302 1308.76 29.0006 1382.45 29.0006C1456.15 29.0006 1515.91 89.5302 1515.91 164.225Z" stroke="#FFC336" stroke-opacity="0.5" stroke-width="2"/>
<path d="M1296 621.501C1296 666.523 1259.95 703.001 1215.5 703.001C1171.05 703.001 1135 666.523 1135 621.501C1135 576.478 1171.05 540.001 1215.5 540.001C1259.95 540.001 1296 576.478 1296 621.501Z" stroke="#3D9741" stroke-opacity="0.2" stroke-width="2"/>
<path d="M1508 538.501C1508 583.523 1471.95 620.001 1427.5 620.001C1383.05 620.001 1347 583.523 1347 538.501C1347 493.478 1383.05 457.001 1427.5 457.001C1471.95 457.001 1508 493.478 1508 538.501Z" stroke="#3D9741" stroke-opacity="0.2" stroke-width="2"/>
<path d="M1269.95 344.872C1269.95 424.895 1205.93 489.744 1126.98 489.744C1048.03 489.744 984.001 424.895 984.001 344.872C984.001 264.85 1048.03 200.001 1126.98 200.001C1205.93 200.001 1269.95 264.85 1269.95 344.872Z" stroke="#3D9741" stroke-opacity="0.2" stroke-width="2"/>
<path d="M1133.06 87.888C1133.06 113.513 1112.56 134.275 1087.28 134.275C1062 134.275 1041.5 113.513 1041.5 87.888C1041.5 62.2627 1062 41.5006 1087.28 41.5006C1112.56 41.5006 1133.06 62.2627 1133.06 87.888Z" stroke="#EC3C22" stroke-opacity="0.5"/>
<path d="M1381.67 407.747C1381.67 435.504 1359.47 457.993 1332.09 457.993C1304.71 457.993 1282.5 435.504 1282.5 407.747C1282.5 379.991 1304.71 357.501 1332.09 357.501C1359.47 357.501 1381.67 379.991 1381.67 407.747Z" stroke="#00529C" stroke-opacity="0.5"/>
<path d="M883.908 390.225C883.908 464.92 824.147 525.449 750.455 525.449C676.762 525.449 617.001 464.92 617.001 390.225C617.001 315.53 676.762 255.001 750.455 255.001C824.147 255.001 883.908 315.53 883.908 390.225Z" stroke="#FFC336" stroke-opacity="0.5" stroke-width="2"/>
<path d="M637.953 570.872C637.953 650.895 573.928 715.744 494.977 715.744C416.026 715.744 352.001 650.895 352.001 570.872C352.001 490.85 416.026 426.001 494.977 426.001C573.928 426.001 637.953 490.85 637.953 570.872Z" stroke="#3D9741" stroke-opacity="0.2" stroke-width="2"/>
<path d="M839.057 111.888C839.057 137.513 818.555 158.275 793.279 158.275C768.003 158.275 747.501 137.513 747.501 111.888C747.501 86.2629 768.003 65.5007 793.279 65.5007C818.555 65.5007 839.057 86.2629 839.057 111.888Z" stroke="#EC3C22" stroke-opacity="0.5"/>
<path d="M749.675 633.747C749.675 661.504 727.468 683.994 700.088 683.994C672.708 683.994 650.501 661.504 650.501 633.747C650.501 605.991 672.708 583.501 700.088 583.501C727.468 583.501 749.675 605.991 749.675 633.747Z" stroke="#00529C" stroke-opacity="0.5"/>
<path d="M76.6746 615.747C76.6746 643.504 54.4677 665.994 27.0878 665.994C-0.292105 665.994 -22.499 643.504 -22.499 615.747C-22.499 587.991 -0.292105 565.501 27.0878 565.501C54.4677 565.501 76.6746 587.991 76.6746 615.747Z" stroke="#00529C" stroke-opacity="0.5"/>
<path d="M-126.845 324.716C-118.636 250.474 -52.5847 196.878 20.6611 204.977C93.9068 213.075 146.655 279.805 138.446 354.048C130.238 428.29 64.1861 481.885 -9.05961 473.787C-82.3054 465.689 -135.053 398.958 -126.845 324.716Z" stroke="#FFC336" stroke-opacity="0.5" stroke-width="2"/>
<path d="M137.474 172.192C146.268 92.6534 217.031 35.2332 295.504 43.9094C373.977 52.5857 430.487 124.078 421.693 203.616C412.899 283.154 342.136 340.574 263.663 331.898C185.19 323.222 128.68 251.73 137.474 172.192Z" stroke="#3D9741" stroke-opacity="0.2" stroke-width="2"/>
<path d="M245.299 442.664C248.115 417.194 270.774 398.81 295.897 401.588C321.02 404.366 339.116 427.255 336.3 452.725C333.484 478.195 310.825 496.578 285.702 493.801C260.579 491.023 242.483 468.134 245.299 442.664Z" stroke="#EC3C22" stroke-opacity="0.5"/>
<path d="M33.3379 97.4202C36.3881 69.8318 60.932 49.9185 88.1461 52.9274C115.36 55.9363 134.961 80.7304 131.911 108.319C128.861 135.907 104.317 155.82 77.1025 152.812C49.8885 149.803 30.2876 125.009 33.3379 97.4202Z" stroke="#00529C" stroke-opacity="0.5"/>
</svg>
