<svg width="51" height="26" viewBox="0 0 51 26" fill="none" xmlns="http://www.w3.org/2000/svg">
<path d="M0.556545 16.4662C12.9543 11.5388 27.18 16.7046 35.7631 23.9366C35.8426 24.0161 36.0015 24.0956 36.1605 24.0956C36.3194 24.0956 36.4784 24.0161 36.6373 23.8572C36.8757 23.6187 36.7963 23.2214 36.5579 22.983C27.6569 15.433 12.9543 10.1878 0.15918 15.2741" fill="#4B9D45"/>
<path d="M0.715258 22.3472C10.252 15.592 22.6498 18.6119 30.2792 23.2214C30.3587 23.3008 30.5177 23.3008 30.5971 23.3008C30.8356 23.3008 30.9945 23.2214 31.1535 22.983C31.3124 22.6651 31.2329 22.3472 30.915 22.1087C20.4246 15.7509 8.2652 15.433 0 21.2345" fill="#4B9D45"/>
<path d="M5.24528 25.2877C5.40422 25.4466 5.56317 25.5261 5.72211 25.5261C5.88106 25.5261 5.96053 25.4466 6.11948 25.3671C11.1263 21.2345 18.4378 20.6782 25.5904 23.9366C25.9083 24.0956 26.2262 23.9366 26.3851 23.6187C26.5441 23.3008 26.3851 22.9829 26.0672 22.824C18.4378 19.4067 10.7289 20.0424 5.32475 24.4929C5.08633 24.6519 5.00686 24.9698 5.24528 25.2877Z" fill="#4B9D45"/>
<path d="M49.9885 8.99569C42.3591 7.56517 31.3124 8.75727 25.034 13.8435C24.7956 14.082 24.7161 14.4793 24.9545 14.7177C25.1134 14.8767 25.2724 14.9562 25.4313 14.9562C25.5903 14.9562 25.6698 14.8767 25.8287 14.7972C31.7892 9.94936 42.3591 8.83674 49.7501 10.2673C50.068 10.3467 50.3859 10.1083 50.4654 9.79042C50.5448 9.39305 50.3064 9.07516 49.9885 8.99569Z" fill="#4B9D45"/>
<path d="M49.5913 12.8104C43.2334 10.6646 33.8556 11.4594 28.2925 14.7177C27.9746 14.8767 27.8951 15.2741 28.0541 15.592C28.1336 15.7509 28.372 15.9098 28.6104 15.9098C28.6899 15.9098 28.8488 15.9098 28.9283 15.8304C34.253 12.7309 43.154 11.9362 49.2734 14.0025C49.5913 14.082 49.9092 13.923 50.0681 13.6051C50.1476 13.2872 49.9092 12.9693 49.5913 12.8104Z" fill="#4B9D45"/>
<path d="M46.0943 15.9098C41.8822 14.4793 35.7628 14.6383 31.2328 16.3072C30.9149 16.3867 30.756 16.7841 30.8354 17.1019C30.9149 17.3404 31.1533 17.4993 31.3918 17.4993C31.4712 17.4993 31.5507 17.4993 31.6302 17.4993C35.9217 15.9098 41.7233 15.7509 45.6969 17.1019C46.0148 17.1814 46.3327 17.0225 46.4916 16.7046C46.5711 16.3867 46.4122 15.9893 46.0943 15.9098Z" fill="#4B9D45"/>
<path d="M14.2259 12.413C14.6233 12.413 14.8617 12.1746 14.8617 11.8567C15.1796 8.43937 18.0406 5.89624 21.3785 5.89624C24.0806 5.89624 26.5442 7.64464 27.4979 10.2673C27.6568 10.5851 27.9747 10.7441 28.2926 10.5851C28.6105 10.4262 28.7695 10.1083 28.6105 9.79042C27.5774 6.77044 24.6369 4.70414 21.4579 4.70414C17.4048 4.70414 14.0669 7.72412 13.6696 11.7772C13.5901 12.0951 13.908 12.413 14.2259 12.413Z" fill="#4B9D45"/>
<path d="M22.3319 3.82994H22.4114C22.7293 3.82994 22.9677 3.59152 23.0472 3.27362L23.3651 0.730485C23.4446 0.412593 23.2062 0.0947003 22.8088 0.0152272C22.4909 -0.0642459 22.173 0.174173 22.0935 0.571539L21.7756 3.11468C21.7756 3.43257 22.0141 3.75046 22.3319 3.82994Z" fill="#4B9D45"/>
<path d="M17.1664 4.14783C17.2459 4.38625 17.4843 4.54519 17.7227 4.54519C17.8022 4.54519 17.8817 4.54519 17.9612 4.46572C18.279 4.30677 18.438 3.98888 18.279 3.67099L17.3254 1.36627C17.1664 1.04838 16.8485 0.889432 16.5306 1.04838C16.2127 1.20732 16.0538 1.52522 16.2127 1.84311L17.1664 4.14783Z" fill="#4B9D45"/>
<path d="M11.603 5.81677L13.5898 7.32675C13.6693 7.40623 13.8282 7.4857 13.9872 7.4857C14.1461 7.4857 14.3845 7.40623 14.464 7.24728C14.7024 7.00886 14.6229 6.6115 14.3845 6.37308L12.3182 4.86309C12.0798 4.62467 11.6824 4.70414 11.444 4.94256C11.2851 5.26045 11.3645 5.57835 11.603 5.81677Z" fill="#4B9D45"/>
<path d="M9.61613 11.5388L12.1593 11.8567H12.2387C12.5566 11.8567 12.7951 11.6183 12.8745 11.3004C12.954 10.9825 12.7156 10.6646 12.3182 10.5851L9.77507 10.2673C9.45718 10.1878 9.13929 10.4262 9.05981 10.8236C9.05981 11.2209 9.29823 11.5388 9.61613 11.5388Z" fill="#4B9D45"/>
<path d="M29.8025 9.31358C29.882 9.31358 29.9615 9.31358 30.0409 9.2341L32.3456 8.28042C32.6635 8.12148 32.8225 7.80359 32.6635 7.48569C32.5046 7.1678 32.1867 7.00885 31.8688 7.1678L29.5641 8.12148C29.2462 8.28042 29.0872 8.59832 29.2462 8.91621C29.3257 9.15463 29.5641 9.31358 29.8025 9.31358Z" fill="#4B9D45"/>
<path d="M26.4648 5.4194C26.5442 5.49887 26.7032 5.57835 26.8621 5.57835C27.0211 5.57835 27.2595 5.49887 27.339 5.33993L28.8489 3.3531C29.0874 3.11468 29.0079 2.71731 28.7695 2.47889C28.5311 2.24048 28.1337 2.31995 27.8953 2.55837L26.3853 4.5452C26.1469 4.86309 26.1469 5.26045 26.4648 5.4194Z" fill="#4B9D45"/>
</svg>
