<svg width="45" height="43" viewBox="0 0 45 43" fill="none" xmlns="http://www.w3.org/2000/svg">
<path d="M43.6939 37.0709L36.2154 28.0182C34.8358 26.3391 32.8028 25.317 30.6246 25.317V23.4189C30.6246 22.0318 29.5355 20.9367 28.156 20.9367H18.4992C17.1197 20.9367 16.0306 22.0318 16.0306 23.4189V25.317H13.1989L3.83255 0.349301C3.68733 0.0572805 3.3969 -0.0887297 3.10647 0.0572805C2.81604 0.130286 2.67083 0.422306 2.74344 0.714326L12.0372 25.317C11.5289 25.39 11.0933 25.6091 10.7302 25.9011L1.07347 0.349301C0.928256 0.0572805 0.637826 -0.0887297 0.347397 0.0572805C0.0569684 0.130286 -0.0882462 0.422306 0.0569684 0.714326L9.93156 26.8501C9.56852 27.3612 9.3507 28.0182 9.3507 28.7483V38.0199C9.3507 38.823 10.0042 39.553 10.8755 39.553H12.1098C13.1989 41.5972 15.3771 42.9113 17.8457 42.9113C20.3144 42.9113 22.42 41.5242 23.5817 39.553H29.7533C30.4068 41.5242 32.222 42.9113 34.3276 42.9113C36.4332 42.9113 38.321 41.4512 38.9019 39.553H42.4596C43.0405 39.553 43.5487 39.188 43.8391 38.677C44.1296 38.1659 44.057 37.5819 43.6939 37.0709ZM17.1197 23.4189C17.1197 22.6889 17.7005 22.1048 18.4266 22.1048H28.0834C28.8094 22.1048 29.3903 22.6889 29.3903 23.4189V25.317H17.0471V23.4189H17.1197ZM17.8457 41.8162C14.8688 41.8162 12.4728 39.407 12.4728 36.4138C12.4728 33.4206 14.8688 31.0114 17.8457 31.0114C20.8226 31.0114 23.2187 33.4206 23.2187 36.4138C23.2187 39.407 20.8226 41.8162 17.8457 41.8162ZM37.958 38.896C37.5949 40.5751 36.0702 41.8162 34.3276 41.8162C32.2946 41.8162 30.6246 40.1371 30.6246 38.0929C30.6246 36.0488 32.2946 34.3697 34.3276 34.3697C36.3606 34.3697 38.0306 36.0488 38.0306 38.0929C38.0306 38.385 38.0306 38.604 37.958 38.896ZM42.8226 38.2389C42.8226 38.312 42.6774 38.458 42.4596 38.458H39.1197C39.1197 38.312 39.1197 38.2389 39.1197 38.0929C39.1197 35.3917 36.9415 33.2016 34.255 33.2016C31.5685 33.2016 29.3903 35.3917 29.3903 38.0929C29.3903 38.2389 29.3903 38.312 29.3903 38.458H23.9448C24.1626 37.8009 24.2352 37.1439 24.2352 36.4138C24.2352 32.8366 21.3309 29.8434 17.7005 29.8434C14.1428 29.8434 11.1659 32.7636 11.1659 36.4138C11.1659 37.1439 11.3111 37.8009 11.4563 38.458H10.8755C10.6576 38.458 10.5124 38.312 10.5124 38.0929V28.7483C10.5124 27.4342 11.6015 26.4121 12.8358 26.4121H30.4794C32.3672 26.4121 34.1824 27.2882 35.3441 28.7483L42.8226 37.8009C42.9679 38.0199 42.8953 38.1659 42.8226 38.2389Z" fill="#4B9D45"/>
<path d="M17.8458 32.1065C15.4498 32.1065 13.562 34.0776 13.562 36.4138C13.562 38.823 15.5224 40.7211 17.8458 40.7211C20.1693 40.7211 22.1297 38.75 22.1297 36.4138C22.1297 34.0046 20.2419 32.1065 17.8458 32.1065ZM17.8458 39.626C16.1033 39.626 14.6511 38.1659 14.6511 36.4138C14.6511 34.6617 16.1033 33.2016 17.8458 33.2016C19.5884 33.2016 21.0406 34.6617 21.0406 36.4138C21.0406 38.1659 19.5884 39.626 17.8458 39.626Z" fill="#4B9D45"/>
<path d="M34.3276 35.3918C32.8028 35.3918 31.6411 36.6328 31.6411 38.0929C31.6411 39.626 32.8754 40.7941 34.3276 40.7941C35.8523 40.7941 37.0141 39.553 37.0141 38.0929C37.0141 36.6328 35.7797 35.3918 34.3276 35.3918ZM34.3276 39.6991C33.4563 39.6991 32.7302 38.969 32.7302 38.0929C32.7302 37.2169 33.4563 36.4868 34.3276 36.4868C35.1989 36.4868 35.9249 37.2169 35.9249 38.0929C35.9249 38.969 35.1989 39.6991 34.3276 39.6991Z" fill="#4B9D45"/>
</svg>
