<svg width="52" height="44" viewBox="0 0 52 44" fill="none" xmlns="http://www.w3.org/2000/svg">
<path d="M16.5147 5.03906C14.6844 5.03906 13.27 6.55078 13.27 8.31445C13.27 10.1621 14.7676 11.5898 16.5147 11.5898C18.3451 11.5898 19.7594 10.0781 19.7594 8.31445C19.8426 6.55078 18.3451 5.03906 16.5147 5.03906ZM16.5147 10.4141C15.4332 10.4141 14.518 9.49023 14.518 8.39844C14.518 7.30664 15.4332 6.38281 16.5147 6.38281C17.5963 6.38281 18.5115 7.30664 18.5115 8.39844C18.5115 9.49023 17.6795 10.4141 16.5147 10.4141Z" fill="#4B9D45"/>
<path d="M34.5686 11.6738C36.3989 11.6738 37.8133 10.1621 37.8133 8.39844C37.8133 6.55078 36.3157 5.12305 34.5686 5.12305C32.7382 5.12305 31.3239 6.63477 31.3239 8.39844C31.2407 10.1621 32.7382 11.6738 34.5686 11.6738ZM34.5686 6.29883C35.6501 6.29883 36.5653 7.22266 36.5653 8.31445C36.5653 9.40625 35.6501 10.3301 34.5686 10.3301C33.487 10.3301 32.5718 9.40625 32.5718 8.31445C32.5718 7.22266 33.4038 6.29883 34.5686 6.29883Z" fill="#4B9D45"/>
<path d="M0.707178 40.9004H50.4592C50.7088 40.9004 50.8752 40.7324 51.0416 40.5645C51.208 40.3965 51.1248 40.1445 51.0416 39.8926L42.0563 27.043C41.9731 26.875 41.7235 26.791 41.5571 26.791H28.9111C28.5783 25.6152 28.0791 24.3555 27.4967 23.0957L29.5767 24.9434C29.6599 25.0273 29.8263 25.1113 29.9927 25.1113C30.0759 25.1113 30.159 25.1113 30.2422 25.0273C30.4918 24.9434 30.575 24.7754 30.6582 24.5234L31.2406 18.1406C31.2406 17.8887 31.1574 17.7207 30.991 17.5527C30.8246 17.3848 30.575 17.3848 30.3254 17.4688L26.9976 19.0645C28.2455 16.8809 29.4935 14.9492 30.3254 13.7734C30.991 15.4531 32.655 16.6289 34.5685 16.6289C36.8148 16.6289 38.6452 15.0332 39.0612 12.8496C41.2243 12.4297 42.8051 10.582 42.8051 8.31445C42.8051 6.04687 41.2243 4.19922 39.0612 3.7793C38.6452 1.5957 36.7316 0 34.5685 0C32.3222 0 30.4918 1.5957 30.0759 3.7793C27.9127 4.19922 26.332 6.04687 26.332 8.31445C26.332 10.4141 27.6631 12.0938 29.5767 12.6816C28.7447 13.8574 27.0807 16.293 25.5 19.1484C23.9192 16.377 22.3385 13.8574 21.5065 12.6816C23.4201 12.0938 24.7512 10.3301 24.7512 8.31445C24.7512 6.04687 23.1705 4.19922 21.0073 3.7793C20.6746 1.5957 18.761 0 16.5147 0C14.2684 0 12.438 1.5957 12.022 3.7793C9.85889 4.19922 8.27814 6.13086 8.27814 8.31445C8.27814 10.582 9.85889 12.4297 12.022 12.8496C12.438 15.0332 14.2684 16.6289 16.5147 16.6289C18.4282 16.6289 20.009 15.4531 20.6745 13.7734C21.4233 14.9492 22.6713 16.7969 23.9192 18.9805L20.6745 17.3848C20.5082 17.3008 20.2586 17.3008 20.009 17.4688C19.8426 17.6367 19.7594 17.8047 19.7594 18.0566L20.3418 24.4395C20.3418 24.6914 20.5082 24.8594 20.7577 24.9434C20.8409 24.9434 20.9241 25.0273 21.0073 25.0273C21.1737 25.0273 21.3401 24.9434 21.4233 24.8594L23.4201 23.0957C22.9209 24.2715 22.4217 25.5312 22.0889 26.707H9.5261C9.35971 26.707 9.11011 26.791 9.02692 26.959L0.124796 39.8926C-0.0415987 40.0605 -0.0415987 40.3125 0.124796 40.5645C0.291191 40.8164 0.457586 40.9004 0.707178 40.9004ZM41.2243 27.9668L49.2113 39.6406H1.78874L9.77569 27.9668H41.2243ZM29.4935 23.1797L26.6648 20.6602L29.9095 19.0645L29.4935 23.1797ZM27.4967 8.31445C27.4967 6.55078 28.8279 5.12305 30.6582 4.95508C30.991 4.95508 31.2406 4.70312 31.2406 4.36719C31.3238 2.60352 32.8214 1.17578 34.5685 1.17578C36.3157 1.17578 37.73 2.51953 37.8964 4.36719C37.8964 4.70312 38.146 4.95508 38.4788 4.95508C40.2259 5.03906 41.6403 6.55078 41.6403 8.31445C41.6403 10.0781 40.3091 11.5059 38.4788 11.6738C38.146 11.6738 37.8964 11.9258 37.8964 12.2617C37.8132 14.0254 36.3157 15.4531 34.5685 15.4531C32.8214 15.4531 31.407 14.1094 31.2406 12.2617V12.1777C31.2406 12.1777 31.2406 12.0938 31.1574 12.0938C31.1574 12.0938 31.1574 12.0098 31.0742 12.0098L30.991 11.9258C30.991 11.9258 30.991 11.9258 30.9078 11.9258L30.8246 11.8418H30.7414C30.7414 11.8418 30.7414 11.8418 30.6582 11.8418C28.9111 11.5898 27.4967 10.0781 27.4967 8.31445ZM16.5147 15.4531C14.7675 15.4531 13.3532 14.1094 13.1868 12.2617C13.1868 11.9258 12.9372 11.6738 12.6044 11.6738C10.8573 11.5898 9.4429 10.0781 9.4429 8.31445C9.4429 6.55078 10.7741 5.12305 12.6044 4.95508C12.9372 4.95508 13.1868 4.70312 13.1868 4.36719C13.27 2.60352 14.7675 1.17578 16.5147 1.17578C18.2618 1.17578 19.6762 2.51953 19.8426 4.36719C19.8426 4.70312 20.0922 4.95508 20.425 4.95508C22.1721 5.03906 23.5865 6.55078 23.5865 8.31445C23.5865 10.0781 22.2553 11.5059 20.425 11.6738C20.425 11.6738 20.425 11.6738 20.3418 11.6738H20.2586C20.1754 11.6738 20.1754 11.6738 20.1754 11.7578C20.1754 11.7578 20.1754 11.7578 20.0922 11.7578L20.009 11.8418C20.009 11.8418 20.009 11.9258 19.9258 11.9258C19.9258 11.9258 19.9258 12.0098 19.8426 12.0098V12.0938C19.7594 14.0254 18.2618 15.4531 16.5147 15.4531ZM21.1737 19.0645L24.4184 20.6602L21.5897 23.1797L21.1737 19.0645ZM25.5 21.9199C26.332 23.5996 27.0807 25.2793 27.5799 26.791H23.5033C24.0024 25.1953 24.668 23.5156 25.5 21.9199Z" fill="#4B9D45"/>
<path d="M10.0254 36.6172C10.0254 36.9531 10.275 37.2891 10.691 37.2891H40.5588C40.8916 37.2891 41.2244 37.0371 41.2244 36.6172C41.2244 36.1973 40.9748 35.9453 40.5588 35.9453H10.6078C10.275 35.9453 10.0254 36.2812 10.0254 36.6172Z" fill="#4B9D45"/>
<path d="M11.9387 33.4258C11.9387 33.7617 12.1883 34.0977 12.6043 34.0977H38.4787C38.8115 34.0977 39.1443 33.8457 39.1443 33.4258C39.1443 33.0059 38.8115 32.7539 38.4787 32.7539H12.6043C12.2715 32.7539 11.9387 33.0898 11.9387 33.4258Z" fill="#4B9D45"/>
<path d="M13.8524 29.8984C13.5196 29.8984 13.27 30.1504 13.27 30.5703C13.27 30.9902 13.5196 31.2422 13.8524 31.2422H37.2309C37.5637 31.2422 37.8964 30.9902 37.8964 30.5703C37.8964 30.1504 37.6469 29.8984 37.2309 29.8984H13.8524Z" fill="#4B9D45"/>
<path d="M50.4594 41.7402H0.707327C0.374538 41.7402 0.041748 41.9922 0.041748 42.4121C0.041748 42.832 0.29134 43.084 0.707327 43.084H50.4594C50.7922 43.084 51.1249 42.832 51.1249 42.4121C51.1249 41.9922 50.7922 41.7402 50.4594 41.7402Z" fill="#4B9D45"/>
</svg>
