<svg width="51" height="41" viewBox="0 0 51 41" fill="none" xmlns="http://www.w3.org/2000/svg">
<path d="M14.5489 14.1115H14.355C12.2224 14.1115 10.2838 12.5606 9.60523 10.428V10.3311L9.12056 6.84146C8.82976 4.90278 9.60523 2.96411 11.0592 1.8009C12.0286 1.02543 13.1918 0.637695 14.4519 0.637695C15.7121 0.637695 16.8753 1.02543 17.8446 1.8009C19.2986 2.96411 20.0741 4.90278 19.7833 6.84146L19.2986 10.3311V10.428C18.6201 12.6575 16.6814 14.1115 14.5489 14.1115ZM11.1562 10.0403C11.5439 11.4943 12.901 12.5606 14.355 12.5606H14.5489C16.0029 12.5606 17.3599 11.4943 17.7477 10.0403L18.2323 6.64759C18.4262 5.29052 17.9415 3.83651 16.8753 3.06104C16.1967 2.47944 15.3243 2.18864 14.4519 2.18864C13.5795 2.18864 12.7071 2.47944 12.0286 3.06104C10.9623 3.93345 10.4776 5.29052 10.6715 6.64759L11.1562 10.0403Z" fill="#4B9D45"/>
<path d="M17.6507 32.9167C17.5538 32.9167 17.4568 32.9167 17.263 32.9167L5.24317 31.4626C4.37076 31.3657 3.49836 30.881 2.91675 30.1056C2.33515 29.3301 2.14128 28.4577 2.33515 27.4884L4.17689 17.795C4.37076 16.5348 5.24317 15.4686 6.40637 14.887L9.41132 13.433C9.70212 13.336 9.99292 13.336 10.1868 13.5299L15.6151 18.0858L18.4262 13.7238C18.62 13.433 19.0078 13.2391 19.3955 13.433C21.0434 14.1115 22.1096 15.6624 22.2066 17.4072L22.4974 24.5803C22.4974 24.9681 22.2066 25.3558 21.7219 25.3558C21.3342 25.3558 20.9464 25.065 20.9464 24.5803L20.6556 17.4072C20.6556 16.4379 20.074 15.5655 19.2986 15.0808L16.4875 19.5398C16.3906 19.7337 16.1967 19.8306 16.0028 19.9275C15.809 19.9275 15.5181 19.9275 15.4212 19.7337L9.70212 14.9839L7.08491 16.244C6.40637 16.6318 5.82477 17.3103 5.72783 18.0858L3.88609 27.7792C3.78916 28.2638 3.88609 28.7485 4.17689 29.1362C4.4677 29.524 4.95236 29.8148 5.43703 29.8148L17.4568 31.3657C18.0384 31.4626 18.717 31.0749 18.8139 30.4933C18.9108 30.1056 18.9108 29.7178 18.62 29.427C18.4262 29.1362 18.0384 28.9424 17.7476 28.8454L8.15118 27.4884C7.95731 27.4884 7.76344 27.2945 7.66651 27.1976C7.56958 27.0037 7.47264 26.8098 7.56958 26.616L8.63585 21.7693C8.73278 21.3815 9.12052 21.0907 9.50825 21.1877C9.89599 21.2846 10.1868 21.6723 10.0899 22.0601L9.21745 26.1313L18.0384 27.3914C18.8139 27.4884 19.5894 27.973 19.9771 28.6516C20.4618 29.3301 20.5587 30.2025 20.2679 30.978C19.9771 32.1412 18.8139 32.9167 17.6507 32.9167Z" fill="#4B9D45"/>
<path d="M10.0899 9.16788C9.70218 9.16788 9.41138 8.87707 9.31444 8.58627C9.21751 8.19854 9.50831 7.8108 9.89604 7.71387C14.6458 6.74453 16.5845 2.28557 16.5845 2.18864C16.7783 1.8009 17.1661 1.60704 17.5538 1.8009C17.9416 1.99477 18.1354 2.38251 17.9416 2.77024C17.8446 2.96411 15.7121 8.1016 10.1868 9.16788C10.1868 9.16788 10.1868 9.16788 10.0899 9.16788Z" fill="#4B9D45"/>
<path d="M47.5061 29.427H41.2054C40.8177 29.427 40.4299 29.0393 40.4299 28.6516C40.4299 28.2638 40.8177 27.8761 41.2054 27.8761H47.5061C48.5724 27.8761 49.4448 27.0037 49.4448 25.9374V13.1422C49.4448 12.0759 48.5724 11.2035 47.5061 11.2035H27.3439C26.2776 11.2035 25.4052 12.0759 25.4052 13.1422V25.9374C25.4052 27.0037 26.2776 27.8761 27.3439 27.8761H34.0323C34.42 27.8761 34.8078 28.2638 34.8078 28.6516C34.8078 29.0393 34.42 29.427 34.0323 29.427H27.3439C25.4052 29.427 23.8542 27.8761 23.8542 25.9374V13.1422C23.8542 11.2035 25.4052 9.65254 27.3439 9.65254H47.5061C49.4448 9.65254 50.9957 11.2035 50.9957 13.1422V25.9374C51.0926 27.8761 49.4448 29.427 47.5061 29.427Z" fill="#4B9D45"/>
<path d="M40.1392 34.9523H31.0274C30.6397 34.9523 30.252 34.5645 30.252 34.1768C30.252 33.7891 30.6397 33.4013 31.0274 33.4013C32.2876 33.4013 33.2569 32.432 33.2569 31.1718V22.157C33.2569 20.9938 34.1293 20.1214 35.2925 20.1214H40.0423C41.2055 20.1214 42.0779 20.9938 42.0779 22.157V33.0136C42.0779 34.1768 41.2055 34.9523 40.1392 34.9523ZM34.0324 33.4983H40.1392C40.3331 33.4983 40.5269 33.3044 40.5269 33.1105V22.2539C40.5269 21.9631 40.3331 21.7693 40.0423 21.7693H35.2925C35.0017 21.7693 34.8078 21.9631 34.8078 22.2539V31.2688C34.8078 32.0443 34.517 32.8197 34.0324 33.4983Z" fill="#4B9D45"/>
<path d="M43.241 34.9523H28.9918C28.604 34.9523 28.2163 34.5645 28.2163 34.1768C28.2163 33.7891 28.604 33.4013 28.9918 33.4013H43.241C43.6288 33.4013 44.0165 33.7891 44.0165 34.1768C44.0165 34.6615 43.7257 34.9523 43.241 34.9523Z" fill="#4B9D45"/>
<path d="M26.2777 34.9523H15.4211C15.2272 34.9523 15.0333 34.8553 14.9364 34.7584L11.9315 32.2381C11.6407 31.9473 11.5437 31.4627 11.8345 31.1718C12.1253 30.881 12.61 30.7841 12.9008 31.0749L15.7119 33.4983H26.2777C26.6654 33.4983 27.0531 33.886 27.0531 34.2737C27.0531 34.6615 26.6654 34.9523 26.2777 34.9523Z" fill="#4B9D45"/>
<path d="M30.6396 32.0443H19.5892C19.2015 32.0443 18.8137 31.6565 18.8137 31.2688C18.8137 30.881 19.2015 30.4933 19.5892 30.4933H30.6396C31.0274 30.4933 31.4151 30.881 31.4151 31.2688C31.4151 31.6565 31.0274 32.0443 30.6396 32.0443Z" fill="#4B9D45"/>
<path d="M17.5538 40.9622H6.98798C6.79411 40.9622 6.60024 40.8652 6.40637 40.7683L0.202608 34.1768C0.00874051 33.886 -0.0881933 33.5952 0.105674 33.3044C0.202608 33.0136 0.49341 32.8197 0.784211 32.8197H10.2837C10.4776 32.8197 10.6715 32.9167 10.7684 33.0136L18.0384 39.6051C18.2323 39.799 18.3292 40.1867 18.2323 40.4775C18.1354 40.7683 17.8446 40.9622 17.5538 40.9622ZM7.27878 39.4112H15.5182L9.99292 34.3707H2.52902L7.27878 39.4112Z" fill="#4B9D45"/>
</svg>
