<svg width="62" height="222" viewBox="0 0 62 222" fill="none" xmlns="http://www.w3.org/2000/svg">
<path opacity="0.5" d="M0 0H55C58.866 0 62 3.13401 62 7V215C62 218.866 58.866 222 55 222H0V0Z" fill="url(#paint0_linear)"/>
<defs>
<linearGradient id="paint0_linear" x1="43.7701" y1="219.925" x2="-51.8812" y2="181.597" gradientUnits="userSpaceOnUse">
<stop stop-color="#C6D108"/>
<stop offset="0.07" stop-color="#A1C516"/>
<stop offset="0.14" stop-color="#83BC21"/>
<stop offset="0.21" stop-color="#6BB429"/>
<stop offset="0.29" stop-color="#5AAF2F"/>
<stop offset="0.38" stop-color="#50AC33"/>
<stop offset="0.48" stop-color="#4DAB34"/>
<stop offset="0.65" stop-color="#389633"/>
<stop offset="0.98" stop-color="#03622F"/>
<stop offset="1" stop-color="#03622F"/>
</linearGradient>
</defs>
</svg>
