<svg width="1298" height="633" viewBox="0 0 1298 633" fill="none" xmlns="http://www.w3.org/2000/svg">
<path opacity="0.05" d="M0 0C406.219 33.9663 857.049 38.8539 1290.4 1.60691C1294.49 1.25531 1298 4.47969 1298 8.58547V625.138C1298 629.325 1294.5 632.603 1290.34 632.164C1247.09 627.606 1022.26 605.953 653.276 605.953C240.881 605.953 0 633 0 633V0Z" fill="#4B9D45"/>
</svg>
