<svg width="1240" height="739" viewBox="0 0 1240 739" fill="none" xmlns="http://www.w3.org/2000/svg">
<path d="M962.331 641.358C892.152 615.78 855.746 538.905 880.98 469.668C906.215 400.431 983.549 365.009 1053.73 390.587C1123.91 416.165 1160.31 493.041 1135.08 562.277C1109.84 631.514 1032.51 666.936 962.331 641.358Z" stroke="#FFC336" stroke-opacity="0.5" stroke-width="2"/>
<path d="M823.395 454.555C748.21 427.152 709.206 344.792 736.241 270.614C763.276 196.436 846.129 158.489 921.314 185.891C996.499 213.293 1035.5 295.653 1008.47 369.831C981.432 444.009 898.58 481.957 823.395 454.555Z" stroke="#3D9741" stroke-opacity="0.2" stroke-width="2"/>
<path d="M1090.22 322.546C1066.15 313.771 1053.66 287.399 1062.32 263.651C1070.97 239.903 1097.5 227.751 1121.58 236.525C1145.65 245.3 1158.14 271.672 1149.48 295.42C1140.83 319.168 1114.3 331.321 1090.22 322.546Z" stroke="#EC3C22" stroke-opacity="0.5"/>
<path d="M613.619 450.33C598.053 444.657 589.984 427.609 595.578 412.261C601.172 396.912 618.318 389.054 633.884 394.728C649.449 400.401 657.519 417.449 651.925 432.797C646.331 448.145 629.184 456.003 613.619 450.33Z" stroke="#005F2D" stroke-opacity="0.2"/>
<path d="M682.849 544.024C656.771 534.52 643.245 505.954 652.621 480.23C661.997 454.505 690.731 441.342 716.81 450.847C742.888 460.351 756.414 488.917 747.038 514.641C737.662 540.366 708.928 553.529 682.849 544.024Z" stroke="#00529C" stroke-opacity="0.5"/>
<path d="M568.296 479.9C508.389 524.514 424.148 512.737 380.133 453.633C336.118 394.53 348.97 310.446 408.877 265.832C468.785 221.219 553.026 232.996 597.041 292.099C641.056 351.203 628.204 435.286 568.296 479.9Z" stroke="#FFC336" stroke-opacity="0.5" stroke-width="2"/>
<path d="M288.385 426.573C224.204 474.37 133.952 461.753 86.7961 398.432C39.6401 335.111 53.4101 245.028 117.591 197.231C181.772 149.435 272.023 162.052 319.179 225.373C366.336 288.694 352.565 378.777 288.385 426.573Z" stroke="#3D9741" stroke-opacity="0.2" stroke-width="2"/>
<path d="M493.779 622.186C473.226 637.492 444.329 633.45 429.232 613.177C414.135 592.905 418.542 564.061 439.094 548.756C459.646 533.45 488.543 537.492 503.64 557.765C518.737 578.037 514.331 606.881 493.779 622.186Z" stroke="#EC3C22" stroke-opacity="0.5"/>
<path d="M254.187 301.826C240.9 311.722 222.221 309.107 212.463 296.005C202.706 282.903 205.552 264.257 218.84 254.362C232.127 244.467 250.806 247.082 260.563 260.184C270.321 273.286 267.475 291.931 254.187 301.826Z" stroke="#005F2D" stroke-opacity="0.2"/>
<path d="M328.233 590.251C305.972 606.83 274.671 602.452 258.317 580.492C241.963 558.533 246.737 527.289 268.999 510.711C291.26 494.132 322.562 498.51 338.915 520.47C355.269 542.429 350.495 573.673 328.233 590.251Z" stroke="#00529C" stroke-opacity="0.5"/>
</svg>
