<svg width="1026" height="577" viewBox="0 0 1026 577" fill="none" xmlns="http://www.w3.org/2000/svg">
<path d="M498.907 147.976C498.907 222.671 439.146 283.2 365.454 283.2C291.761 283.2 232 222.671 232 147.976C232 73.2815 291.761 12.752 365.454 12.752C439.146 12.752 498.907 73.2815 498.907 147.976Z" stroke="#FFC336" stroke-opacity="0.5" stroke-width="2"/>
<path d="M286.952 372.624C286.952 452.647 222.927 517.495 143.976 517.495C65.0247 517.495 1 452.647 1 372.624C1 292.601 65.0247 227.752 143.976 227.752C222.927 227.752 286.952 292.601 286.952 372.624Z" stroke="#3D9741" stroke-opacity="0.2" stroke-width="2"/>
<path d="M525.415 231.862C525.415 257.487 504.914 278.249 479.637 278.249C454.361 278.249 433.859 257.487 433.859 231.862C433.859 206.237 454.361 185.475 479.637 185.475C504.914 185.475 525.415 206.237 525.415 231.862Z" stroke="#EC3C22" stroke-opacity="0.5"/>
<path d="M165.476 262.543C165.476 279.11 152.222 292.529 135.886 292.529C119.55 292.529 106.296 279.11 106.296 262.543C106.296 245.976 119.55 232.557 135.886 232.557C152.222 232.557 165.476 245.976 165.476 262.543Z" stroke="#005F2D" stroke-opacity="0.2"/>
<path d="M138.814 94.4808C138.814 122.237 116.607 144.727 89.2269 144.727C61.8471 144.727 39.6401 122.237 39.6401 94.4808C39.6401 66.7243 61.8471 44.2344 89.2269 44.2344C116.607 44.2344 138.814 66.7243 138.814 94.4808Z" stroke="#00529C" stroke-opacity="0.5"/>
<path d="M805.331 392.36C735.152 366.782 698.746 289.906 723.981 220.67C749.215 151.433 826.549 116.011 896.728 141.589C966.907 167.167 1003.31 244.042 978.079 313.279C952.844 382.516 875.51 417.938 805.331 392.36Z" stroke="#FFC336" stroke-opacity="0.5" stroke-width="2"/>
<path d="M612.857 353.029C537.672 325.627 498.668 243.267 525.703 169.089C552.738 94.911 635.591 56.9633 710.776 84.3655C785.961 111.768 824.965 194.128 797.93 268.306C770.894 342.484 688.042 380.432 612.857 353.029Z" stroke="#3D9741" stroke-opacity="0.2" stroke-width="2"/>
<path d="M804.224 474.546C780.148 465.771 767.661 439.399 776.317 415.651C784.972 391.903 811.499 379.751 835.575 388.525C859.651 397.3 872.138 423.672 863.483 447.42C854.827 471.168 828.3 483.321 804.224 474.546Z" stroke="#EC3C22" stroke-opacity="0.5"/>
<path d="M399.845 400.332C384.279 394.659 376.21 377.611 381.804 362.262C387.398 346.914 404.544 339.056 420.11 344.73C435.675 350.403 443.745 367.451 438.151 382.799C432.557 398.147 415.41 406.005 399.845 400.332Z" stroke="#005F2D" stroke-opacity="0.2"/>
<path d="M566.876 432.831C540.798 423.326 527.272 394.761 536.648 369.036C546.023 343.312 574.758 330.149 600.836 339.653C626.915 349.158 640.441 377.723 631.065 403.448C621.689 429.173 592.955 442.336 566.876 432.831Z" stroke="#00529C" stroke-opacity="0.5"/>
</svg>
