<svg width="1387" height="431" viewBox="0 0 1387 431" fill="none" xmlns="http://www.w3.org/2000/svg">
<path d="M1363.3 100.475C1363.3 155.378 1317.08 199.95 1259.98 199.95C1202.89 199.95 1156.67 155.378 1156.67 100.475C1156.67 45.5715 1202.89 1 1259.98 1C1317.08 1 1363.3 45.5715 1363.3 100.475Z" stroke="#FFC336" stroke-opacity="0.5" stroke-width="2"/>
<path d="M1200.41 272.067C1200.41 330.901 1150.88 378.658 1089.7 378.658C1028.53 378.658 979 330.901 979 272.067C979 213.234 1028.53 165.477 1089.7 165.477C1150.88 165.477 1200.41 213.234 1200.41 272.067Z" stroke="#3D9741" stroke-opacity="0.2" stroke-width="2"/>
<path d="M1386.3 185.21C1386.3 204.016 1370.47 219.293 1350.9 219.293C1331.33 219.293 1315.49 204.016 1315.49 185.21C1315.49 166.404 1331.33 151.128 1350.9 151.128C1370.47 151.128 1386.3 166.404 1386.3 185.21Z" stroke="#EC3C22" stroke-opacity="0.5"/>
<path d="M1291.59 407.735C1291.59 419.86 1281.38 429.721 1268.75 429.721C1256.11 429.721 1245.9 419.86 1245.9 407.735C1245.9 395.61 1256.11 385.749 1268.75 385.749C1281.38 385.749 1291.59 395.61 1291.59 407.735Z" stroke="#005F2D" stroke-opacity="0.2"/>
<path d="M1270.9 283.778C1270.9 304.156 1253.75 320.707 1232.54 320.707C1211.34 320.707 1194.18 304.156 1194.18 283.778C1194.18 263.4 1211.34 246.849 1232.54 246.849C1253.75 246.849 1270.9 263.4 1270.9 283.778Z" stroke="#00529C" stroke-opacity="0.5"/>
<path d="M402.6 146.297C402.6 203.686 354.288 250.272 294.613 250.272C234.938 250.272 186.626 203.686 186.626 146.297C186.626 88.9083 234.938 42.3221 294.613 42.3221C354.288 42.3221 402.6 88.9083 402.6 146.297Z" stroke="#FFC336" stroke-opacity="0.5" stroke-width="2"/>
<path d="M232.412 294.751C232.412 356.245 180.644 406.16 116.706 406.16C52.7676 406.16 1 356.245 1 294.751C1 233.256 52.7676 183.341 116.706 183.341C180.644 183.341 232.412 233.256 232.412 294.751Z" stroke="#3D9741" stroke-opacity="0.2" stroke-width="2"/>
<path d="M426.614 234.828C426.614 254.49 410.061 270.46 389.601 270.46C369.142 270.46 352.589 254.49 352.589 234.828C352.589 215.167 369.142 199.197 389.601 199.197C410.061 199.197 426.614 215.167 426.614 234.828Z" stroke="#EC3C22" stroke-opacity="0.5"/>
<path d="M134.85 258.471C134.85 271.152 124.171 281.464 110.959 281.464C97.7463 281.464 87.0679 271.152 87.0679 258.471C87.0679 245.79 97.7463 235.478 110.959 235.478C124.171 235.478 134.85 245.79 134.85 258.471Z" stroke="#005F2D" stroke-opacity="0.2"/>
<path d="M113.236 128.96C113.236 150.264 95.3005 167.566 73.136 167.566C50.9715 167.566 33.036 150.264 33.036 128.96C33.036 107.656 50.9715 90.3546 73.136 90.3546C95.3005 90.3546 113.236 107.656 113.236 128.96Z" stroke="#00529C" stroke-opacity="0.5"/>
</svg>
