<svg width="125" height="34" viewBox="0 0 125 34" fill="none" xmlns="http://www.w3.org/2000/svg">
<path d="M62.3176 23.7773H59.4481V23.4277L59.8799 23.2479V19.8312L59.4385 19.6713V19.2617H62.2889V20.3307H61.7898L61.5883 19.6913H60.523V21.1399H61.809V21.6294H60.523V23.3278H61.665L61.9625 22.6984H62.4424L62.3176 23.7773Z" fill="white"/>
<path d="M62.7881 23.7763V23.4466L63.2199 23.2668V19.5504L62.7305 19.3605V18.9609H63.8245V23.2668L64.266 23.4466V23.7763H62.7881Z" fill="white"/>
<path d="M68.949 21.6955C68.6521 21.8504 68.3206 21.9194 67.9893 21.8953H67.7014V21.4657H67.8837C68.1047 21.4929 68.3285 21.4512 68.5267 21.3458C68.638 21.2608 68.7258 21.1468 68.7814 21.0153C68.837 20.8838 68.8584 20.7394 68.8434 20.5965C68.8607 20.4461 68.8375 20.2936 68.7766 20.156C68.7156 20.0185 68.6191 19.9012 68.4979 19.8173C68.3082 19.7176 68.0952 19.676 67.8837 19.6974H67.4998V23.2539L67.9797 23.4238V23.7834H66.3866V23.4338L66.8184 23.234V19.8373L66.377 19.6974V19.2878H67.9989C68.3308 19.27 68.6615 19.3423 68.9586 19.4976C69.1365 19.6178 69.279 19.7869 69.3704 19.9861C69.4619 20.1853 69.4987 20.4069 69.4768 20.6265C69.4815 20.8364 69.4356 21.0441 69.3434 21.2308C69.2512 21.4175 69.1156 21.5772 68.949 21.6955Z" fill="white"/>
<path d="M71.771 23.7718V23.2223C71.6779 23.4046 71.54 23.5579 71.3714 23.6667C71.2028 23.7755 71.0096 23.8359 70.8113 23.8417C70.6831 23.8505 70.5545 23.8307 70.4342 23.7837C70.3139 23.7366 70.2047 23.6633 70.1138 23.5687C70.023 23.4741 69.9526 23.3604 69.9073 23.2352C69.8621 23.11 69.8431 22.9762 69.8516 22.8427C69.8516 22.0235 70.4466 21.7637 71.08 21.7637C71.2942 21.7525 71.5088 21.7525 71.723 21.7637V21.464C71.723 21.0644 71.723 20.8047 71.0992 20.8047C70.7911 20.8208 70.487 20.8848 70.1971 20.9945L70.0819 20.5549C70.4502 20.3929 70.8436 20.3016 71.2432 20.2852C72.3181 20.2852 72.3277 20.9745 72.3277 21.4241V23.2323L72.7595 23.4121V23.7418L71.771 23.7718ZM71.6463 22.2233C71.5121 22.2135 71.3774 22.2135 71.2432 22.2233C70.7441 22.2233 70.3986 22.3531 70.3986 22.8327C70.3983 22.904 70.4123 22.9746 70.4399 23.0399C70.4674 23.1052 70.5078 23.1638 70.5585 23.2118C70.6092 23.2599 70.6689 23.2963 70.734 23.3187C70.799 23.3412 70.8679 23.3492 70.9361 23.3422C71.3199 23.3422 71.6463 23.0425 71.6463 22.3432V22.2233Z" fill="white"/>
<path d="M74.7266 21.3771L74.6019 20.8676C74.3602 20.9547 74.1427 21.1022 73.9684 21.2972V23.2952L74.4771 23.4751V23.8047H72.9511V23.4751L73.3734 23.2952V20.9975L72.8936 20.8177V20.408H73.8533V20.9176C73.9754 20.7383 74.1363 20.5916 74.3231 20.4892C74.5098 20.3867 74.7171 20.3316 74.9282 20.3281H75.1777V21.3272L74.7266 21.3771Z" fill="white"/>
<path d="M77.068 25.0459V24.6962L77.5575 24.5164V23.7771C77.4073 23.7883 77.2566 23.7883 77.1064 23.7771C76.8894 23.7935 76.6715 23.761 76.4676 23.682C76.2637 23.6029 76.0785 23.4791 75.9246 23.3189C75.7708 23.1588 75.6518 22.966 75.5759 22.7537C75.4999 22.5415 75.4688 22.3147 75.4845 22.0888C75.4568 21.8549 75.4779 21.6176 75.5463 21.393C75.6148 21.1684 75.729 20.9618 75.8811 20.7873C76.0332 20.6128 76.2197 20.4745 76.4279 20.3819C76.636 20.2893 76.8609 20.2445 77.0872 20.2505C77.4484 20.2548 77.8083 20.2949 78.1621 20.3704V24.4764L78.546 24.6563V24.976L77.068 25.0459ZM77.5671 20.8699C77.4266 20.8555 77.2852 20.8555 77.1448 20.8699C76.4346 20.8699 76.1179 21.4494 76.1179 22.1287C76.0962 22.2903 76.1093 22.4548 76.1563 22.6104C76.2033 22.766 76.283 22.9088 76.3896 23.0284C76.4962 23.1479 76.627 23.2413 76.7726 23.3017C76.9181 23.3621 77.0748 23.388 77.2312 23.3775C77.3429 23.3874 77.4553 23.3874 77.5671 23.3775V20.8699Z" fill="white"/>
<path d="M81.0993 23.7769V23.2274C81.0077 23.4111 80.8702 23.5655 80.7013 23.6746C80.5323 23.7836 80.3383 23.8431 80.1395 23.8468C79.9912 23.8675 79.8402 23.8518 79.6987 23.8009C79.5572 23.7499 79.4291 23.6653 79.3247 23.5537C79.2202 23.442 79.1423 23.3065 79.0971 23.1579C79.052 23.0093 79.0409 22.8518 79.0647 22.6979V20.9996L78.5752 20.8198V20.4102H79.6789V22.5181C79.6789 22.9777 79.6789 23.3273 80.2451 23.3273C80.8113 23.3273 80.9361 22.8578 80.9361 22.3283V20.9996L80.4562 20.8198V20.4102H81.5503V23.2774L81.9822 23.4472V23.7769H81.0993Z" fill="white"/>
<path d="M84.9572 22.0586H82.9034C82.9034 22.8578 83.2201 23.3074 83.9687 23.3074C84.2227 23.2995 84.4745 23.2558 84.7173 23.1775L84.8324 23.6571C84.5263 23.7806 84.201 23.845 83.8727 23.8469C83.6528 23.8666 83.4315 23.8349 83.225 23.754C83.0184 23.6731 82.8319 23.545 82.6791 23.3793C82.5263 23.2135 82.4111 23.0143 82.342 22.7961C82.2728 22.5779 82.2515 22.3464 82.2796 22.1186C82.2796 20.65 83.0953 20.3203 83.7095 20.3203C84.8516 20.3203 84.9956 21.2594 84.9764 21.8988L84.9572 22.0586ZM83.652 20.7499C82.961 20.7499 82.9322 21.6091 82.9322 21.6091H84.2758C84.2758 21.6091 84.3334 20.7499 83.652 20.7499Z" fill="white"/>
<path d="M52.0487 29.3605L52.0007 28.841C51.9086 29.0219 51.7701 29.1727 51.6007 29.2767C51.4313 29.3808 51.2376 29.434 51.0409 29.4304C50.1676 29.4304 49.8125 28.6711 49.8125 27.8519C49.8125 26.0337 50.9162 25.9138 51.3097 25.9138C51.512 25.9175 51.7139 25.9342 51.9143 25.9638V25.1246L51.4248 24.9547V24.5352H52.5285V28.861L52.9604 29.0408V29.3605H52.0487ZM51.9239 26.4633C51.7769 26.4537 51.6294 26.4537 51.4824 26.4633C50.7434 26.4633 50.4651 27.0128 50.4651 27.792C50.4651 28.3515 50.6475 28.9409 51.1945 28.9409C51.9431 28.9409 51.9239 27.8419 51.9239 27.5322V26.4633Z" fill="white"/>
<path d="M55.8967 27.6928H53.8429C53.8429 28.492 54.1692 28.9516 54.9178 28.9516C55.1724 28.9416 55.4243 28.8945 55.6664 28.8117L55.7815 29.2912C55.4754 29.4148 55.1501 29.4791 54.8218 29.4811C54.5941 29.5077 54.3635 29.4789 54.1484 29.3968C53.9332 29.3148 53.7393 29.1818 53.582 29.0084C53.4247 28.8349 53.3083 28.6258 53.242 28.3975C53.1756 28.1691 53.1612 27.9279 53.1999 27.6928C53.1999 26.2242 54.0252 25.8945 54.6299 25.8945C55.7719 25.8945 55.9255 26.8336 55.8967 27.473V27.6928ZM54.6011 26.3841C53.9005 26.3841 53.8813 27.2432 53.8813 27.2432H55.2153C55.2153 27.2432 55.2729 26.3841 54.6011 26.3841Z" fill="white"/>
<path d="M56.2422 29.3622V29.0325L56.674 28.8527V25.1363L56.1846 24.9465V24.5469H57.2787V28.8527L57.7201 29.0325V29.3622H56.2422Z" fill="white"/>
<path d="M62.4809 29.3596L61.3868 27.3615H60.9165V28.8401L61.3484 29.0099V29.3696H59.8416V29.0199L60.2735 28.8401V25.4134L59.832 25.2536V24.844H61.5307C61.827 24.8221 62.1231 24.8879 62.3849 25.0338C62.5476 25.1371 62.6801 25.2848 62.7681 25.4609C62.8561 25.637 62.8961 25.8347 62.8839 26.0328C62.8988 26.3095 62.8179 26.5826 62.6559 26.8026C62.4939 27.0225 62.2616 27.1747 62.001 27.2316L62.9607 28.7801L63.239 28.9799V29.3496L62.4809 29.3596ZM61.8954 25.3634C61.7192 25.2653 61.5179 25.2269 61.3196 25.2536H60.9165V26.872H61.2812C61.4825 26.8969 61.6864 26.8586 61.8666 26.7621C61.9701 26.6801 62.0539 26.5743 62.1116 26.453C62.1694 26.3317 62.1994 26.1981 62.1994 26.0628C62.1994 25.9274 62.1694 25.7939 62.1116 25.6726C62.0539 25.5513 61.9701 25.4455 61.8666 25.3634" fill="white"/>
<path d="M66.0986 27.6928H64.0448C64.0448 28.492 64.3616 28.9516 65.1101 28.9516C65.3647 28.9416 65.6167 28.8945 65.8587 28.8117L65.9739 29.2912C65.6677 29.4148 65.3425 29.4791 65.0142 29.481C64.7872 29.506 64.5578 29.4759 64.3439 29.3932C64.1299 29.3104 63.9373 29.1772 63.7812 29.0039C63.625 28.8307 63.5095 28.6222 63.4436 28.3947C63.3778 28.1672 63.3635 27.927 63.4018 27.6928C63.4018 26.2242 64.2176 25.8945 64.8222 25.8945C65.9739 25.8945 66.1178 26.8336 66.0986 27.473V27.6928ZM64.7934 26.3841C64.1024 26.3841 64.0736 27.2432 64.0736 27.2432H65.4076C65.4076 27.2432 65.4652 26.3841 64.7934 26.3841Z" fill="white"/>
<path d="M68.1623 29.4289C67.9498 29.4496 67.7354 29.422 67.5341 29.3482C67.3327 29.2744 67.1491 29.156 66.9959 29.0013C66.8427 28.8465 66.7235 28.6591 66.6465 28.4518C66.5695 28.2445 66.5366 28.0223 66.55 27.8005C66.5199 27.5632 66.5389 27.322 66.6057 27.093C66.6725 26.864 66.7856 26.6525 66.9374 26.4727C67.0892 26.2929 67.2762 26.149 67.4858 26.0506C67.6954 25.9523 67.9228 25.9017 68.1527 25.9023C68.436 25.903 68.7186 25.9297 68.9973 25.9823V26.9813H68.4886L68.3351 26.3619H68.1815C67.6921 26.3619 67.2218 26.7815 67.2218 27.7006C67.2009 27.8601 67.2149 28.0225 67.2627 28.1757C67.3105 28.3288 67.391 28.4687 67.498 28.5849C67.605 28.7011 67.7359 28.7907 67.8809 28.8469C68.0258 28.9031 68.1811 28.9245 68.3351 28.9094C68.5646 28.9038 68.7929 28.8737 69.0165 28.8195L69.1125 29.2791C68.8213 29.3787 68.5168 29.4293 68.2103 29.4289" fill="white"/>
<path d="M71.8183 29.3589V28.8095C71.7268 28.9931 71.5893 29.1476 71.4203 29.2566C71.2514 29.3656 71.0574 29.4251 70.8586 29.4288C70.7145 29.4451 70.5687 29.4272 70.4321 29.3765C70.2956 29.3257 70.1719 29.2434 70.0703 29.1357C69.9687 29.028 69.8919 28.8978 69.8456 28.7548C69.7993 28.6117 69.7847 28.4597 69.8029 28.3099V26.5816L69.3135 26.4018V25.9922H70.4172V28.1001C70.4172 28.5597 70.4172 28.9094 70.9834 28.9094C71.5496 28.9094 71.6744 28.4398 71.6744 27.9103V26.5816L71.1945 26.4018V25.9922H72.2886V28.8594L72.7205 29.0292V29.3589H71.8183Z" fill="white"/>
<path d="M75.6772 27.6928H73.6425C73.6425 28.492 73.9593 28.9516 74.7078 28.9516C74.9656 28.9423 75.2209 28.8952 75.466 28.8117L75.5716 29.2912C75.2654 29.4148 74.9402 29.4791 74.6119 29.481C74.3834 29.5094 74.1517 29.4818 73.9353 29.4005C73.7189 29.3193 73.5237 29.1865 73.3653 29.0128C73.2068 28.8392 73.0895 28.6294 73.0227 28.4002C72.9559 28.1711 72.9414 27.9288 72.9803 27.6928C72.9803 26.2242 73.7961 25.8945 74.4103 25.8945C75.5524 25.8945 75.6963 26.8336 75.6772 27.473V27.6928ZM74.3719 26.3841C73.6809 26.3841 73.6521 27.2432 73.6521 27.2432H74.9958C74.9958 27.2432 75.0533 26.3841 74.3719 26.3841Z" fill="white"/>
<path d="M77.9325 26.9634L77.8173 26.4539C77.5756 26.541 77.3582 26.6885 77.1839 26.8834V28.8815L77.6926 29.0613V29.391H76.1474V29.0613L76.5793 28.8815V26.5837L76.0898 26.4039V25.9943H77.0496V26.5038C77.1732 26.3238 77.3358 26.1766 77.5242 26.0742C77.7126 25.9718 77.9215 25.9171 78.1341 25.9144C78.2171 25.9087 78.3005 25.9087 78.3836 25.9144V26.9134L77.9325 26.9634Z" fill="white"/>
<path d="M80.8974 29.3605L80.8495 28.841C80.7573 29.0219 80.6189 29.1727 80.4495 29.2767C80.2801 29.3808 80.0864 29.434 79.8897 29.4304C79.0164 29.4304 78.6709 28.6711 78.6709 27.8519C78.6709 26.0337 79.765 25.9138 80.1585 25.9138C80.3608 25.9175 80.5627 25.9342 80.7631 25.9638V25.1246L80.2736 24.9547V24.5352H81.3485V28.861L81.7804 29.0408V29.3605H80.8974ZM80.7727 26.4633C80.6257 26.4537 80.4782 26.4537 80.3312 26.4633C79.5922 26.4633 79.3139 27.0128 79.3139 27.792C79.3139 28.3515 79.4963 28.9409 80.0433 28.9409C80.7919 28.9409 80.7727 27.8419 80.7727 27.5322V26.4633Z" fill="white"/>
<path d="M83.5086 29.4289C82.5489 29.4289 82.0498 28.8195 82.0498 27.6706C82.0498 26.5217 82.5777 25.9023 83.5086 25.9023C84.4395 25.9023 84.9578 26.5217 84.9578 27.6706C84.9578 28.8195 84.4395 29.4289 83.5086 29.4289ZM83.5086 26.3519C82.904 26.3519 82.6928 26.8914 82.6928 27.6706C82.6928 28.4499 82.904 28.9894 83.5086 28.9894C84.1132 28.9894 84.3147 28.4399 84.3147 27.6706C84.3147 26.9014 84.1036 26.3519 83.5086 26.3519Z" fill="white"/>
<path d="M55.0044 16.4835L54.1119 10.7091C53.9295 9.56021 53.8048 8.51123 53.6992 7.43227H53.6512C53.4497 8.4313 53.2002 9.54023 52.8451 10.7491L51.1176 16.5235H47.9985L46.3382 11.2186C45.9293 9.96917 45.6085 8.69034 45.3784 7.39231C45.2537 8.70104 45.1097 9.78999 44.9658 10.9688L44.2748 16.4835H41.0117L43.2575 2.36719H46.9812L48.9006 8.56118C49.2098 9.56673 49.4598 10.591 49.6492 11.6282C49.8779 10.5822 50.1663 9.5514 50.5129 8.5412L52.5284 2.36719H56.1753L58.421 16.4835H55.0044Z" fill="white"/>
<path d="M68.1722 12.066H62.0108C62.0108 13.4546 62.8649 14.2439 64.5732 14.2439C65.6163 14.2466 66.6486 14.0255 67.606 13.5945L67.8843 16.0022C66.6564 16.4775 65.3553 16.7145 64.0454 16.7015C60.6576 16.7015 58.7861 15.0531 58.7861 11.3866C58.7861 8.18974 60.552 5.83203 63.7479 5.83203C66.9438 5.83203 68.2682 7.94998 68.2682 10.7073C68.2628 11.1751 68.2308 11.6421 68.1722 12.1059V12.066ZM63.6999 8.15977C63.2502 8.17026 62.8226 8.36498 62.5099 8.70166C62.1973 9.03834 62.0248 9.48979 62.03 9.95803H65.1491C65.1971 8.78916 64.6116 8.15977 63.6999 8.15977Z" fill="white"/>
<path d="M81.7906 16.4836V9.95991C81.7906 9.08076 81.5795 8.54129 80.8309 8.54129C79.8712 8.54129 78.8155 9.77009 78.8155 11.4884V16.4836H75.7156V9.95991C75.7156 9.12072 75.5237 8.54129 74.7559 8.54129C73.7386 8.54129 72.7213 9.84003 72.7213 11.4884V16.4836H69.583V6.09366H72.5581C72.5471 6.63522 72.5054 7.17563 72.4334 7.71209C72.7799 7.12535 73.27 6.64502 73.8534 6.32027C74.4369 5.99551 75.0928 5.83801 75.754 5.86388C76.3576 5.79026 76.9672 5.93333 77.482 6.26941C77.9968 6.60549 78.386 7.11445 78.5852 7.71209C78.9164 7.12239 79.3944 6.63665 79.9687 6.30609C80.543 5.97553 81.1923 5.81241 81.8482 5.83391C83.8636 5.83391 84.9673 6.9828 84.9673 9.32053V16.4536L81.7906 16.4836Z" fill="white"/>
<path d="M91.1189 16.7048C88.1246 16.7048 86.1188 15.2262 86.1188 11.5298C86.0887 10.775 86.2098 10.022 86.4745 9.31854C86.7391 8.61512 87.1415 7.97672 87.656 7.44395C88.1705 6.91118 88.7859 6.49569 89.463 6.22392C90.1402 5.95214 90.8642 5.83002 91.5892 5.86532C94.7274 5.86532 96.5413 7.62362 96.5413 11.0703C96.5669 11.8182 96.444 12.5636 96.1805 13.2599C95.9169 13.9563 95.5182 14.5885 95.0094 15.1173C94.5005 15.646 93.8924 16.0599 93.2231 16.333C92.5537 16.6062 91.8374 16.7327 91.1189 16.7048ZM91.4164 8.5727C90.4567 8.5727 89.4394 9.34195 89.4394 11.1602C89.4394 12.9784 90.044 13.9475 91.3588 13.9475C92.5009 13.9475 93.2783 12.9484 93.2783 11.2501C93.2783 9.55175 92.712 8.5727 91.4068 8.5727" fill="white"/>
<path d="M103.576 8.99694C101.849 8.59732 100.937 9.59636 100.937 12.1938V16.4797H97.7793V6.08976H100.726C100.722 6.7054 100.674 7.3199 100.582 7.92797C100.811 7.27713 101.237 6.72152 101.797 6.34491C102.356 5.9683 103.017 5.79109 103.682 5.84L103.576 8.99694Z" fill="white"/>
<path d="M107.712 6.09375H104.555V16.4837H107.712V6.09375Z" fill="white"/>
<path d="M115.112 16.4821C115.098 15.9577 115.127 15.433 115.198 14.9137C114.883 15.4901 114.42 15.9632 113.86 16.2793C113.3 16.5953 112.667 16.7418 112.031 16.7019C110.054 16.7019 109.008 15.5331 109.008 13.8547C109.008 11.2272 111.551 9.96847 114.833 9.96847V9.56886C114.833 8.71968 114.353 8.30009 112.981 8.30009C111.937 8.32293 110.909 8.57842 109.968 9.04936L109.718 6.41192C110.933 6.03452 112.193 5.83283 113.461 5.8125C117.021 5.8125 118.02 7.1512 118.02 9.52889V14.0046C118.02 14.7538 118.02 15.653 118.096 16.4722L115.112 16.4821ZM114.824 12.0065C112.54 12.0065 111.945 12.6359 111.945 13.3852C111.945 13.9146 112.319 14.2843 112.991 14.2843C113.234 14.2766 113.474 14.2186 113.696 14.1137C113.918 14.0088 114.118 13.8591 114.284 13.6733C114.45 13.4875 114.579 13.2692 114.663 13.0311C114.748 12.793 114.786 12.5398 114.776 12.2862L114.824 12.0065Z" fill="white"/>
<path d="M123.03 1.21875H119.872V16.4839H123.03V1.21875Z" fill="white"/>
<path d="M91.0514 28.6015C90.8882 28.6015 90.5907 28.6015 90.3028 28.6015V33.287H87.0781V19.1507C88.2874 19.0907 89.6118 19.0508 91.0706 19.0508C94.6503 19.0508 96.5985 20.6792 96.5985 23.5864C96.5985 26.3237 94.6791 28.5815 91.0706 28.5815L91.0514 28.6015ZM90.9938 21.6982C90.7637 21.6833 90.5329 21.6833 90.3028 21.6982V25.8342C90.5139 25.8342 90.6963 25.8342 90.869 25.8342C91.1619 25.8689 91.4586 25.8399 91.7402 25.7491C92.0218 25.6584 92.2822 25.5077 92.505 25.3068C92.7278 25.1058 92.9081 24.859 93.0346 24.5817C93.161 24.3045 93.2308 24.003 93.2395 23.6963C93.2395 22.5074 92.5869 21.6982 90.9938 21.6982Z" fill="white"/>
<path d="M102.818 33.2625C102.804 32.7347 102.833 32.2067 102.904 31.684C102.593 32.2615 102.131 32.7362 101.573 33.0542C101.015 33.3721 100.382 33.5204 99.7469 33.4823C97.7411 33.4923 96.6758 32.3234 96.6758 30.685C96.6758 28.0575 99.2094 26.7988 102.501 26.7988V26.3992C102.501 25.54 102.021 25.1304 100.649 25.1304C99.6045 25.152 98.5767 25.4075 97.6355 25.8797L97.386 23.2422C98.6005 22.8598 99.8602 22.6547 101.129 22.6328C104.68 22.6328 105.678 23.9715 105.678 26.3592V30.8349C105.678 31.5841 105.678 32.4833 105.764 33.3025L102.818 33.2625ZM102.53 28.7868C100.236 28.7868 99.6989 29.4162 99.6989 30.1655C99.6989 30.685 100.073 31.0646 100.735 31.0646C100.98 31.0569 101.22 30.999 101.442 30.8942C101.665 30.7895 101.865 30.6399 102.032 30.4542C102.199 30.2685 102.329 30.0503 102.414 29.8122C102.5 29.574 102.539 29.3206 102.53 29.0666V28.7868Z" fill="white"/>
<path d="M113.375 25.7845C111.657 25.3849 110.736 26.3839 110.736 28.9814V33.2672H107.578V22.8773H110.534C110.525 23.486 110.477 24.0935 110.39 24.6955C110.618 24.0428 111.043 23.485 111.603 23.1065C112.162 22.728 112.825 22.5493 113.49 22.5976L113.375 25.7845Z" fill="white"/>
<path d="M120.323 33.2652L117.521 28.27V33.2652H114.354V18H117.521V27.0512L120.131 22.8753H124.028L120.611 27.6406L124.277 33.2652H120.323Z" fill="white"/>
<path d="M107.914 2.63616C107.932 2.89365 107.899 3.15226 107.817 3.39583C107.735 3.6394 107.605 3.86271 107.436 4.0518C107.267 4.2409 107.063 4.39172 106.836 4.49486C106.608 4.59799 106.363 4.65122 106.115 4.65122C105.867 4.65122 105.621 4.59799 105.394 4.49486C105.167 4.39172 104.962 4.2409 104.793 4.0518C104.624 3.86271 104.495 3.6394 104.413 3.39583C104.33 3.15226 104.297 2.89365 104.315 2.63616C104.297 2.37867 104.33 2.12006 104.413 1.87649C104.495 1.63291 104.624 1.40961 104.793 1.22051C104.962 1.03142 105.167 0.880591 105.394 0.777457C105.621 0.674323 105.867 0.621094 106.115 0.621094C106.363 0.621094 106.608 0.674323 106.836 0.777457C107.063 0.880591 107.267 1.03142 107.436 1.22051C107.605 1.40961 107.735 1.63291 107.817 1.87649C107.899 2.12006 107.932 2.37867 107.914 2.63616Z" fill="white"/>
<path d="M0.703125 9.03125L6.03212 14.9871C8.96911 16.415 11.4616 18.7234 13.2113 21.6361C14.9611 24.5489 15.8939 27.9425 15.8982 31.411H20.0626C20.0631 25.7374 18.0662 20.2743 14.4741 16.1218C10.8819 11.9693 5.96136 9.43569 0.703125 9.03125H0.703125Z" fill="white"/>
<path d="M24.5348 7.87005V7.66951C24.5102 5.80626 23.8021 4.02907 22.5648 2.72553C21.3275 1.422 19.6615 0.697881 17.9302 0.711116C16.1988 0.724351 14.5425 1.47386 13.3225 2.79618C12.1026 4.1185 11.418 5.90634 11.418 7.76978C11.418 9.63322 12.1026 11.4211 13.3225 12.7434C14.5425 14.0657 16.1988 14.8152 17.9302 14.8284C19.6615 14.8417 21.3275 14.1176 22.5648 12.814C23.8021 11.5105 24.5102 9.7333 24.5348 7.87005ZM17.9854 10.3767C17.3491 10.3767 16.739 10.1047 16.2891 9.62052C15.8392 9.13632 15.5864 8.47961 15.5864 7.79485C15.5864 7.11009 15.8392 6.45337 16.2891 5.96917C16.739 5.48497 17.3491 5.21295 17.9854 5.21295C18.6216 5.21295 19.2318 5.48497 19.6817 5.96917C20.1316 6.45337 20.3844 7.11009 20.3844 7.79485C20.3844 8.47961 20.1316 9.13632 19.6817 9.62052C19.2318 10.1047 18.6216 10.3767 17.9854 10.3767Z" fill="white"/>
<path d="M20.0629 33.6797V31.4087C20.0668 27.9407 20.9989 24.5475 22.7478 21.6348C24.4967 18.7221 26.9882 16.4134 29.9243 14.9848L35.2533 8.96875C29.9962 9.40379 25.0845 11.9551 21.4973 16.114C17.9102 20.2729 15.911 25.734 15.8984 31.4087V33.6747H20.0629V33.6797Z" fill="white"/>
<path d="M29.938 14.9664C28.9049 17.4505 27.2259 19.5597 25.1038 21.0397C22.9816 22.5197 20.5068 23.3072 17.9781 23.3072C15.4493 23.3072 12.9746 22.5197 10.8524 21.0397C8.73026 19.5597 7.05132 17.4505 6.01814 14.9664L0.703125 9.0306V9.19103C0.777556 14.0691 2.63032 18.7203 5.86191 22.1416C9.0935 25.563 13.445 27.4804 17.9781 27.4804C22.5112 27.4804 26.8627 25.563 30.0943 22.1416C33.3259 18.7203 35.1786 14.0691 35.2531 9.19103V8.98047L29.938 14.9664Z" fill="white"/>
</svg>
