<svg width="19" height="16" viewBox="0 0 19 16" fill="none" xmlns="http://www.w3.org/2000/svg">
<path d="M0.679688 15.2148V9.39453L13.1797 7.71484L0.679688 6.03516V0.214844L18.1797 7.71484L0.679688 15.2148Z" fill="white"/>
</svg>
