<svg width="60" height="358" viewBox="0 0 60 358" fill="none" xmlns="http://www.w3.org/2000/svg">
<path d="M-2 0H53C56.866 0 60 3.13401 60 7V351C60 354.866 56.866 358 53 358H-2V0Z" fill="url(#paint0_linear)" fill-opacity="0.5"/>
<defs>
<linearGradient id="paint0_linear" x1="-38.425" y1="30.072" x2="148.507" y2="311.347" gradientUnits="userSpaceOnUse">
<stop stop-color="#FBC500"/>
<stop offset="0.03" stop-color="#F9BC02"/>
<stop offset="0.14" stop-color="#F4A107"/>
<stop offset="0.25" stop-color="#F18F0B"/>
<stop offset="0.36" stop-color="#EF840D"/>
<stop offset="0.48" stop-color="#EE800E"/>
<stop offset="0.6" stop-color="#ED790F"/>
<stop offset="0.77" stop-color="#EA6513"/>
<stop offset="0.98" stop-color="#E54418"/>
<stop offset="1" stop-color="#E54418"/>
</linearGradient>
</defs>
</svg>
