<svg width="375" height="239" viewBox="0 0 375 239" fill="none" xmlns="http://www.w3.org/2000/svg">
<path d="M2.58841 206.837C-17.9638 222.142 -46.8609 218.1 -61.958 197.828C-77.0551 177.555 -72.6485 148.711 -52.0963 133.406C-31.5441 118.101 -2.64691 122.143 12.4502 142.415C27.5473 162.687 23.1406 191.531 2.58841 206.837Z" stroke="#F18F0B"/>
<path d="M-12.7766 102.546C-36.8526 93.7713 -49.3391 67.3995 -40.6838 43.6513C-32.0284 19.9031 -5.50107 7.75058 18.5749 16.5254C42.6509 25.3003 55.1375 51.672 46.4821 75.4202C37.8267 99.1684 11.2994 111.321 -12.7766 102.546Z" stroke="#EC3C22" stroke-opacity="0.5"/>
<path d="M349.814 106.512C334.248 100.839 326.179 83.7906 331.773 68.4422C337.367 53.0937 354.514 45.2361 370.079 50.9092C385.645 56.5823 393.714 73.6303 388.12 88.9787C382.526 104.327 365.38 112.185 349.814 106.512Z" stroke="#FBC500"/>
<path d="M368.85 221.025C342.771 211.52 329.245 182.955 338.621 157.23C347.997 131.505 376.731 118.342 402.81 127.847C428.888 137.352 442.414 165.917 433.038 191.642C423.663 217.366 394.928 230.53 368.85 221.025Z" stroke="#00529C" stroke-opacity="0.5"/>
</svg>
