<svg width="39" height="48" viewBox="0 0 39 48" fill="none" xmlns="http://www.w3.org/2000/svg">
<path d="M11.3728 44.8634H3.48148C1.50864 44.8634 0 43.3641 0 41.4035V8.0731C0 7.72711 0.116049 7.38112 0.348148 7.15046L7.19505 0.34599C7.42715 0.11533 7.7753 0 8.12345 0H29.0123C30.9852 0 32.4938 1.49929 32.4938 3.4599V12.6863C32.4938 13.263 32.0296 13.6089 31.5654 13.6089C31.1012 13.6089 30.637 13.1476 30.637 12.6863V3.4599C30.637 2.65259 29.9407 1.96061 29.1284 1.96061H8.35555L1.97284 8.30376V41.4035C1.97284 42.2108 2.66913 42.9028 3.48148 42.9028H11.3728C11.9531 42.9028 12.3012 43.3641 12.3012 43.8254C12.3012 44.2867 11.9531 44.8634 11.3728 44.8634Z" fill="#D67E1B"/>
<path d="M6.49876 8.88041H0.928394C0.464197 8.88041 0 8.41909 0 7.95777C0 7.49645 0.464197 6.9198 0.928394 6.9198H6.38271C6.73086 6.9198 6.96296 6.68914 6.96296 6.34315V0.92264C6.96296 0.46132 7.42715 0 8.0074 0C8.58765 0 8.93579 0.46132 8.93579 0.92264V6.34315C8.93579 7.72711 7.89135 8.88041 6.49876 8.88041Z" fill="#D67E1B"/>
<path d="M34.239 28.9478C34.239 28.9478 34.123 28.9478 34.239 28.9478C33.7748 28.9478 33.3106 28.6018 33.3106 28.0251C33.3106 27.4485 33.3106 26.8718 33.3106 26.4105C30.2933 26.6412 25.6514 25.8339 24.3748 20.644C24.2588 20.1827 24.4909 19.7214 24.9551 19.6061C25.4193 19.4907 25.8835 19.7214 25.9995 20.1827C27.3921 25.7185 33.6588 24.5652 33.8909 24.4499C34.123 24.4499 34.3551 24.4499 34.5872 24.5652C34.8193 24.6806 34.9353 24.9112 34.9353 25.1419C34.9353 25.1419 35.0514 26.1799 35.0514 27.7945C35.0514 28.4865 34.7032 28.9478 34.239 28.9478Z" fill="#D67E1B"/>
<path d="M12.312 28.9479C11.8478 28.9479 11.4997 28.6019 11.3836 28.1406C11.3836 26.526 11.4997 25.488 11.4997 25.488C11.9639 20.1828 13.5885 16.8383 16.4898 15.4543C21.1317 13.263 27.0503 17.1842 27.2824 17.2996C27.6305 17.5302 27.7466 17.9916 27.6305 18.3375C27.1663 19.3755 26.5861 20.2982 25.8898 21.1055C22.0601 25.488 15.5614 26.18 13.2404 26.2953C13.2404 26.7566 13.2404 27.3333 13.2404 28.0253C13.2404 28.4866 12.7762 28.9479 12.312 28.9479ZM19.7392 16.3769C18.9268 16.3769 18.1145 16.4923 17.3021 16.8383C15.2132 17.8762 13.8206 20.4135 13.3564 24.45C15.5614 24.3347 21.2478 23.5274 24.4972 19.8368C24.9614 19.3755 25.3095 18.7989 25.6577 18.1069C24.6132 17.6456 22.1762 16.3769 19.7392 16.3769Z" fill="#D67E1B"/>
<path d="M34.1306 26.2952C33.6664 26.2952 33.3183 25.9493 33.2022 25.4879C33.2022 21.682 32.1578 19.0295 30.0689 17.5302C27.0516 15.3389 22.7578 16.7229 22.6418 16.7229C22.1776 16.8382 21.7134 16.6075 21.5973 16.1462C21.4813 15.6849 21.7134 15.2236 22.1776 15.1082C22.4097 14.9929 27.3998 13.4936 31.1134 16.1462C33.5504 17.8762 34.8269 20.9901 34.943 25.4879C34.943 25.9493 34.5948 26.2952 34.1306 26.2952Z" fill="#D67E1B"/>
<path d="M23.2121 47.4006C21.4713 47.4006 19.7306 46.824 18.2219 45.786C15.2047 43.4794 13.2318 39.9042 12.1874 35.1756C9.98244 35.1756 8.2417 33.3304 8.2417 31.1391C8.2417 28.9478 9.98244 27.1025 12.1874 27.1025C12.6516 27.1025 13.1158 27.4485 13.1158 28.0252C13.1158 28.4865 12.7676 28.9478 12.3034 28.9478C11.0269 28.9478 9.98244 29.9858 9.98244 31.2544C9.98244 32.5231 11.0269 33.561 12.1874 33.561C12.3034 33.561 12.4195 33.561 12.5355 33.561C12.6516 33.561 12.7676 33.561 12.9997 33.561C13.3479 33.6764 13.58 33.907 13.696 34.253C14.6244 38.9815 16.4812 42.4414 19.2664 44.6327C21.4713 46.3627 24.8367 46.3627 27.0417 44.6327C29.8269 42.4414 31.6836 38.9815 32.612 34.253C32.7281 33.7917 33.1923 33.4457 33.6565 33.561C33.7725 33.561 33.8886 33.561 34.0046 33.561C35.2812 33.561 36.2096 32.5231 36.2096 31.2544C36.2096 29.9858 35.2812 29.0632 34.0046 28.9478C33.5404 28.9478 33.1923 28.4865 33.1923 28.0252C33.1923 27.5639 33.6565 27.2179 34.1207 27.2179C36.3256 27.3332 38.0664 29.0632 38.0664 31.2544C38.0664 33.4457 36.3256 35.1756 34.2367 35.1756C33.1923 39.9042 31.1034 43.4794 28.2022 45.786C26.8096 46.824 24.9528 47.4006 23.2121 47.4006Z" fill="#D67E1B"/>
<path d="M25.6474 40.4808H20.7733C20.3091 40.4808 19.8449 40.1348 19.8449 39.5581C19.8449 39.0968 20.1931 38.6355 20.7733 38.6355H25.6474C26.1116 38.6355 26.5758 38.9815 26.5758 39.5581C26.4597 40.0195 26.1116 40.4808 25.6474 40.4808Z" fill="#D67E1B"/>
</svg>
