<svg width="57" height="78" viewBox="0 0 57 78" fill="none" xmlns="http://www.w3.org/2000/svg">
<path d="M37.1685 15.2017H8.51355C7.69484 15.2017 7.20361 15.8626 7.20361 16.5235C7.20361 17.1845 7.85858 17.8454 8.51355 17.8454H37.1685C37.9872 17.8454 38.4785 17.1845 38.4785 16.5235C38.4785 15.8626 37.9872 15.2017 37.1685 15.2017Z" fill="#D67E1B"/>
<path d="M27.6725 61.4678H4.91228C3.76608 61.4678 2.78363 60.4764 2.78363 59.3197V12.7232H9.16959C11.1345 12.7232 12.7719 11.0708 12.7719 9.08798V2.80901H40.9357C42.0819 2.80901 43.0643 3.80043 43.0643 4.95708V32.221C43.0643 33.0472 43.7193 33.5429 44.3743 33.5429C45.0292 33.5429 45.6842 32.882 45.6842 32.221V4.95708C45.6842 2.14807 43.5556 0 40.7719 0H11.462C11.462 0 11.462 0 11.2982 0C11.2982 0 11.2982 0 11.1345 0C10.807 0 10.4795 0.165236 10.3158 0.495708H10.152L0.491228 10.2446C0.491228 10.2446 0.491228 10.2446 0.491228 10.4099C0.163743 10.5751 0 10.9056 0 11.4013C0 11.4013 0 11.4013 0 11.5665V59.3197C0 62.1288 2.12865 64.2768 4.91228 64.2768H27.6725C28.4912 64.2768 28.9825 63.6159 28.9825 62.9549C28.9825 62.294 28.4912 61.4678 27.6725 61.4678ZM9.16959 9.91416H4.74854L9.82456 4.79185V9.25322C9.82456 9.58369 9.49708 9.91416 9.16959 9.91416Z" fill="#D67E1B"/>
<path d="M37.1685 20.4893H8.51355C7.69484 20.4893 7.20361 21.1502 7.20361 21.8111C7.20361 22.4721 7.85858 23.133 8.51355 23.133H37.1685C37.9872 23.133 38.4785 22.4721 38.4785 21.8111C38.4785 21.1502 37.9872 20.4893 37.1685 20.4893Z" fill="#D67E1B"/>
<path d="M8.51355 36.6824C7.69484 36.6824 7.20361 37.3433 7.20361 38.0043C7.20361 38.6652 7.85858 39.3261 8.51355 39.3261H23.7416C24.5603 39.3261 25.0516 38.6652 25.0516 38.0043C25.0516 37.3433 24.3966 36.6824 23.7416 36.6824H8.51355Z" fill="#D67E1B"/>
<path d="M38.6422 32.7167C38.6422 31.8905 37.9872 31.3948 37.3323 31.3948H8.51355C7.69484 31.3948 7.20361 32.0558 7.20361 32.7167C7.20361 33.3777 7.85858 34.0386 8.51355 34.0386H37.1685C37.9872 34.0386 38.6422 33.3777 38.6422 32.7167Z" fill="#D67E1B"/>
<path d="M37.1685 25.942H8.51355C7.69484 25.942 7.20361 26.603 7.20361 27.2639C7.20361 27.9248 7.85858 28.5858 8.51355 28.5858H37.1685C37.9872 28.5858 38.4785 27.9248 38.4785 27.2639C38.4785 26.603 37.9872 25.942 37.1685 25.942Z" fill="#D67E1B"/>
<path d="M55.3462 49.9013C55.8374 49.0751 56.0012 48.0837 55.6737 47.0923C55.5099 46.1009 54.855 45.1094 54.0363 44.6137C54.2 43.6223 53.8725 42.6309 53.2175 41.8047C52.5626 40.9785 51.7439 40.4828 50.7614 40.1524C50.4339 39.1609 49.9427 38.3348 48.9602 37.8391C48.1415 37.3434 46.9953 37.0129 46.0129 37.3434C45.3579 36.5172 44.5392 36.0215 43.393 35.8562C42.4105 35.691 41.4281 35.8562 40.6094 36.5172C39.7906 36.0215 38.8082 35.8562 37.8257 36.1867C36.8433 36.3519 35.8608 37.0129 35.3696 37.8391C34.3871 37.6738 33.4047 38.0043 32.586 38.6652C31.7673 39.3262 31.276 40.1524 30.9485 41.1438C29.9661 41.4743 29.1474 41.97 28.6561 42.9614C28.1649 43.7876 27.8374 44.9442 28.1649 45.9356C27.3462 46.5966 26.855 47.4228 26.6912 48.5794C26.5275 49.5708 26.6912 50.5622 27.3462 51.3884C26.855 52.2146 26.6912 53.206 27.0187 54.1974C27.1825 55.1888 27.8374 56.1803 28.6561 56.676C28.4924 57.6674 28.8199 58.6588 29.4749 59.6502C30.1298 60.4764 30.9485 60.9721 31.931 61.3026C32.0947 61.9635 32.4222 62.4592 32.9135 62.9549L30.4573 73.3648C30.2936 73.8605 30.4573 74.3562 30.9485 74.6867C31.276 75.0172 31.931 75.1824 32.2585 75.0172L37.1708 73.1996L40.7731 77C41.1006 77.3305 41.4281 77.4957 41.7556 77.4957C41.9193 77.4957 42.083 77.4957 42.083 77.4957C42.5743 77.3305 42.9018 77 43.0655 76.5043L44.048 72.5386C44.2117 72.5386 44.3754 72.7039 44.3754 72.7039H44.5392C45.0304 72.7039 45.3579 72.5386 45.6854 72.2082L47.814 69.5644L51.0889 70.3906C51.5801 70.5558 52.0714 70.3906 52.3988 70.0601C52.7263 69.7296 52.8901 69.2339 52.7263 68.7382L50.7614 61.9635C51.2526 61.4678 51.5801 60.8069 51.7439 60.1459C52.7263 59.8155 53.545 59.3197 54.0363 58.3283C54.5275 57.5021 54.855 56.3455 54.5275 55.3541C55.3462 54.6931 55.8374 53.867 56.0012 52.7103C56.1649 51.8841 55.8374 50.7275 55.3462 49.9013ZM40.9368 72.8691L38.4807 70.2253C38.1532 69.8949 37.4983 69.7296 37.007 69.8949L33.5684 71.0515L35.2059 63.7811C35.5333 63.7811 36.0246 63.7811 36.3521 63.7811C37.007 64.6073 37.8257 65.103 38.9719 65.2682C39.1357 65.2682 39.4632 65.2682 39.6269 65.2682C40.2819 65.2682 40.7731 65.103 41.2643 64.9378L42.083 67.5816L40.9368 72.8691ZM47.6503 65.9292C47.1591 65.764 46.5041 65.9292 46.1766 66.4249L45.1942 67.7468L44.2117 65.103C44.3754 65.103 44.5392 65.103 44.7029 65.103C45.6854 64.9378 46.6678 64.2768 47.1591 63.4507C47.4866 63.4507 47.814 63.4507 48.3053 63.4507L49.2877 66.5901L47.6503 65.9292ZM53.2175 52.3798C53.2175 52.8755 52.7263 53.206 52.2351 53.3712C51.9076 53.5365 51.5801 53.867 51.4164 54.1974C51.2526 54.5279 51.2526 55.0236 51.5801 55.3541C51.9076 55.8498 51.9076 56.3455 51.5801 56.8412C51.2526 57.1717 50.9251 57.5021 50.4339 57.5021C50.1064 57.5021 49.6152 57.6674 49.4515 57.9979C49.2877 58.3283 49.124 58.6588 49.124 59.1545C49.124 59.6502 48.9602 60.1459 48.6328 60.4764C48.3053 60.8069 47.6503 60.8069 47.3228 60.6416C46.9953 60.4764 46.5041 60.4764 46.1766 60.6416C45.8491 60.8069 45.5216 61.1373 45.3579 61.6331C45.1942 62.1288 44.8667 62.4592 44.3754 62.6245C43.8842 62.7897 43.393 62.6245 43.0655 62.294C42.738 61.9635 42.4105 61.7983 42.083 61.7983C41.7556 61.7983 41.2643 61.9635 41.1006 62.294C40.7731 62.6245 40.2819 62.7897 39.7906 62.7897C39.2994 62.7897 38.9719 62.294 38.8082 61.7983C38.6444 61.4678 38.317 61.1373 37.9895 60.9721C37.8257 60.9721 37.662 60.8069 37.4982 60.8069C37.1708 60.8069 37.007 60.8069 36.8433 60.9721C36.3521 61.3026 35.8608 61.3026 35.3696 60.9721C35.0421 60.6416 34.7146 60.3112 34.7146 59.8155C34.7146 59.485 34.5509 58.9893 34.2234 58.824C33.8959 58.4936 33.5684 58.3283 33.0772 58.4936C32.586 58.4936 32.0947 58.3283 31.7673 57.9979C31.4398 57.6674 31.4398 57.0064 31.6035 56.676C31.7673 56.3455 31.7673 55.8498 31.6035 55.5193C31.4398 55.1888 31.1123 54.8584 30.6211 54.6931C30.1298 54.5279 29.8023 54.1974 29.6386 53.7017C29.4749 53.206 29.6386 52.7103 29.9661 52.3798C30.2936 52.0494 30.4573 51.7189 30.4573 51.3884C30.4573 51.0579 30.2936 50.5622 29.9661 50.397C29.6386 50.0665 29.4749 49.5708 29.4749 49.0751C29.4749 48.5794 29.9661 48.0837 30.4573 48.0837C30.7848 47.9185 31.1123 47.588 31.276 47.2575C31.4398 46.927 31.4398 46.4313 31.1123 46.1009C30.7848 45.6052 30.7848 45.1094 31.1123 44.6137C31.4398 44.2833 31.7673 43.9528 32.2585 43.9528C32.586 43.9528 33.0772 43.7876 33.2409 43.4571C33.4047 43.1266 33.5684 42.7961 33.5684 42.3004C33.5684 41.8047 33.7322 41.309 34.0597 40.9785C34.3871 40.6481 35.0421 40.6481 35.3696 40.8133C35.6971 40.9785 36.1883 40.9785 36.5158 40.8133C36.8433 40.6481 37.1708 40.3176 37.3345 39.8219C37.4982 39.3262 37.8257 38.9957 38.317 38.8305C38.8082 38.6652 39.2994 38.8305 39.6269 39.1609C39.9544 39.4914 40.2819 39.6567 40.6094 39.6567C40.9368 39.6567 41.4281 39.4914 41.5918 39.1609C41.9193 38.8305 42.4105 38.6652 42.9018 38.6652C43.393 38.6652 43.8842 39.1609 43.8842 39.6567C44.048 39.9871 44.3754 40.3176 44.7029 40.4828C45.0304 40.6481 45.5216 40.6481 45.8491 40.3176C46.3404 39.9871 46.8316 39.9871 47.3228 40.3176C47.6503 40.6481 47.9778 40.9785 47.9778 41.4743C47.9778 41.8047 48.1415 42.3004 48.469 42.4657C48.7965 42.7961 49.124 42.9614 49.6152 42.7961C50.1064 42.7961 50.5977 42.9614 50.9252 43.2919C51.2526 43.6223 51.2526 44.2833 51.0889 44.6137C50.9252 44.9442 50.9252 45.4399 51.0889 45.7704C51.2526 46.1009 51.5801 46.4313 52.0713 46.5966C52.5626 46.7618 52.8901 47.0923 53.0538 47.588C53.2176 48.0837 53.0538 48.5794 52.7263 48.9099C52.3988 49.2403 52.2351 49.5708 52.2351 49.9013C52.2351 50.2318 52.3988 50.7275 52.7263 50.8927C53.0538 51.3884 53.3813 51.8841 53.2175 52.3798Z" fill="#D67E1B"/>
<path d="M46.666 41.8047C44.3736 40.3176 41.7537 39.8219 39.1338 40.4829C36.5139 41.1438 34.2215 42.6309 32.9116 44.9442C31.4379 47.2575 30.9467 49.9013 31.6016 52.5451C32.2566 55.1889 33.7303 57.5022 36.0227 58.8241C37.6601 59.8155 39.4613 60.3112 41.4262 60.3112C42.2449 60.3112 42.8999 60.146 43.7186 59.9807C49.1221 58.6588 52.5607 53.206 51.2507 47.7532C50.432 45.6052 48.9583 43.2919 46.666 41.8047ZM42.8999 57.6674C38.9701 58.6588 35.0402 56.015 34.0578 52.0494C33.5665 50.0666 33.894 48.0837 35.0402 46.4314C36.0227 44.779 37.6601 43.6223 39.625 43.1266C40.1162 42.9614 40.7712 42.9614 41.2624 42.9614C42.5724 42.9614 43.8823 43.2919 45.1923 44.1181C46.8297 45.1095 47.9759 46.7618 48.4671 48.7447C49.2858 52.8756 46.8297 56.8412 42.8999 57.6674Z" fill="#D67E1B"/>
</svg>
