<svg width="53" height="66" viewBox="0 0 53 66" fill="none" xmlns="http://www.w3.org/2000/svg">
<path d="M15.8354 62.4672H4.84756C2.10061 62.4672 0 60.3796 0 57.6496V11.2409C0 10.7591 0.161585 10.2774 0.484756 9.9562L10.0183 0.481752C10.3415 0.160584 10.8262 0 11.311 0H40.3963C43.1433 0 45.2439 2.08759 45.2439 4.81752V17.6642C45.2439 18.4672 44.5976 18.9489 43.9512 18.9489C43.3049 18.9489 42.6585 18.3066 42.6585 17.6642V4.81752C42.6585 3.69343 41.689 2.72993 40.5579 2.72993H11.6341L2.74695 11.562V57.6496C2.74695 58.7737 3.71646 59.7372 4.84756 59.7372H15.8354C16.6433 59.7372 17.128 60.3796 17.128 61.0219C17.128 61.6642 16.6433 62.4672 15.8354 62.4672Z" fill="#D67E1B"/>
<path d="M9.04878 12.365H1.29268C0.646342 12.365 0 11.7226 0 11.0803C0 10.438 0.646342 9.63504 1.29268 9.63504H8.8872C9.37195 9.63504 9.69512 9.31387 9.69512 8.83212V1.28467C9.69512 0.642336 10.3415 0 11.1494 0C11.9573 0 12.4421 0.642336 12.4421 1.28467V8.83212C12.4421 10.7591 10.9878 12.365 9.04878 12.365Z" fill="#D67E1B"/>
<path d="M47.6681 40.3065C47.6681 40.3065 47.5065 40.3065 47.6681 40.3065C47.0217 40.3065 46.3754 39.8248 46.3754 39.0218C46.3754 38.2189 46.3754 37.416 46.3754 36.7737C42.1742 37.0948 35.7108 35.9708 33.9333 28.7445C33.7717 28.1021 34.0949 27.4598 34.7413 27.2992C35.3876 27.1386 36.0339 27.4598 36.1955 28.1021C38.1345 35.8102 46.8602 34.2043 47.1833 34.0437C47.5065 34.0437 47.8297 34.0437 48.1528 34.2043C48.476 34.3649 48.6376 34.6861 48.6376 35.0073C48.6376 35.0073 48.7992 36.4525 48.7992 38.7007C48.7992 39.6642 48.3144 40.3065 47.6681 40.3065Z" fill="#D67E1B"/>
<path d="M17.1277 40.3066C16.4813 40.3066 15.9966 39.8248 15.835 39.1825C15.835 36.9343 15.9966 35.4891 15.9966 35.4891C16.6429 28.1022 18.9051 23.4453 22.9447 21.5183C29.4082 18.4672 37.649 23.927 37.9722 24.0876C38.4569 24.4088 38.6185 25.0511 38.4569 25.5329C37.8106 26.9781 37.0027 28.2628 36.0332 29.3869C30.7008 35.4891 21.6521 36.4526 18.4204 36.6132C18.4204 37.2555 18.4204 38.0584 18.4204 39.0219C18.4204 39.6643 17.774 40.3066 17.1277 40.3066ZM27.4691 22.8029C26.338 22.8029 25.2069 22.9635 24.0758 23.4453C21.1673 24.8905 19.2283 28.4234 18.5819 34.0438C21.6521 33.8832 29.5697 32.7591 34.0941 27.6205C34.7405 26.9781 35.2252 26.1752 35.71 25.2117C34.2557 24.5694 30.8624 22.8029 27.4691 22.8029Z" fill="#D67E1B"/>
<path d="M47.505 36.6131C46.8587 36.6131 46.3739 36.1314 46.2123 35.489C46.2123 30.1898 44.7581 26.4963 41.8495 24.4088C37.6483 21.3577 31.6697 23.2847 31.5081 23.2847C30.8617 23.4452 30.2154 23.1241 30.0538 22.4817C29.8922 21.8394 30.2154 21.1971 30.8617 21.0365C31.1849 20.8759 38.1331 18.7883 43.3038 22.4817C46.6971 24.8905 48.4745 29.2263 48.6361 35.489C48.6361 36.1314 48.1514 36.6131 47.505 36.6131Z" fill="#D67E1B"/>
<path d="M32.3172 66C29.8934 66 27.4696 65.1971 25.369 63.7518C21.1678 60.5402 18.4208 55.5621 16.9666 48.9781C13.8964 48.9781 11.4727 46.4088 11.4727 43.3577C11.4727 40.3066 13.8964 37.7372 16.9666 37.7372C17.6129 37.7372 18.2592 38.219 18.2592 39.0219C18.2592 39.6642 17.7745 40.3066 17.1281 40.3066C15.3507 40.3066 13.8964 41.7518 13.8964 43.5183C13.8964 45.2847 15.3507 46.7299 16.9666 46.7299C17.1281 46.7299 17.2897 46.7299 17.4513 46.7299C17.6129 46.7299 17.7745 46.7299 18.0977 46.7299C18.5824 46.8905 18.9056 47.2117 19.0672 47.6934C20.3599 54.2774 22.9452 59.0949 26.8233 62.146C29.8934 64.5548 34.5794 64.5548 37.6495 62.146C41.5275 59.0949 44.1129 54.2774 45.4056 47.6934C45.5672 47.0511 46.2135 46.5694 46.8598 46.7299C47.0214 46.7299 47.183 46.7299 47.3446 46.7299C49.122 46.7299 50.4147 45.2847 50.4147 43.5183C50.4147 41.7518 49.122 40.4672 47.3446 40.3066C46.6983 40.3066 46.2135 39.6642 46.2135 39.0219C46.2135 38.3796 46.8598 37.8978 47.5062 37.8978C50.5763 38.0584 53.0001 40.4672 53.0001 43.5183C53.0001 46.5694 50.5763 48.9781 47.6678 48.9781C46.2135 55.5621 43.305 60.5402 39.2653 63.7518C37.3263 65.1971 34.7409 66 32.3172 66Z" fill="#D67E1B"/>
<path d="M35.7105 56.365H28.9239C28.2775 56.365 27.6312 55.8832 27.6312 55.0803C27.6312 54.438 28.1159 53.7957 28.9239 53.7957H35.7105C36.3568 53.7957 37.0031 54.2774 37.0031 55.0803C36.8416 55.7227 36.3568 56.365 35.7105 56.365Z" fill="#D67E1B"/>
</svg>
