<svg width="1364" height="378" viewBox="0 0 1364 378" fill="none" xmlns="http://www.w3.org/2000/svg">
<path opacity="0.1" d="M0 0C427.706 20.293 902.407 23.2047 1358.66 0.927294C1362.66 0.732135 1366 3.91961 1366 7.92135V370.11C1366 374.307 1362.47 377.587 1358.3 377.132C1313.38 372.231 1073.66 348.247 684 348.247C250 348.247 0 378 0 378V0Z" fill="url(#paint0_linear)"/>
<defs>
<linearGradient id="paint0_linear" x1="-29.0494" y1="190.173" x2="1339.37" y2="190.173" gradientUnits="userSpaceOnUse">
<stop stop-color="#FBC500"/>
<stop offset="0.03" stop-color="#F9BC02"/>
<stop offset="0.14" stop-color="#F4A107"/>
<stop offset="0.25" stop-color="#F18F0B"/>
<stop offset="0.36" stop-color="#EF840D"/>
<stop offset="0.48" stop-color="#EE800E"/>
<stop offset="0.6" stop-color="#ED790F"/>
<stop offset="0.77" stop-color="#EA6513"/>
<stop offset="0.98" stop-color="#E54418"/>
<stop offset="1" stop-color="#E54418"/>
</linearGradient>
</defs>
</svg>
