<svg width="375" height="470" viewBox="0 0 375 470" fill="none" xmlns="http://www.w3.org/2000/svg">
<mask id="mask0" mask-type="alpha" maskUnits="userSpaceOnUse" x="0" y="0" width="375" height="470">
<rect width="375" height="470" fill="#C4C4C4"/>
</mask>
<g mask="url(#mask0)">
<path opacity="0.1" d="M-495 -11C-67.3311 16.3233 407.324 20.2458 863.542 -9.74346C867.582 -10.009 871 -6.80436 871 -2.75536V489.778C871 494.09 867.292 497.416 863.027 496.791C817.418 490.102 577.875 457.936 189 457.936C-245 457.936 -495 498 -495 498V-11Z" fill="url(#paint0_linear)"/>
</g>
<defs>
<linearGradient id="paint0_linear" x1="-524.049" y1="245.08" x2="844.367" y2="245.08" gradientUnits="userSpaceOnUse">
<stop stop-color="#FBC500"/>
<stop offset="0.03" stop-color="#F9BC02"/>
<stop offset="0.14" stop-color="#F4A107"/>
<stop offset="0.25" stop-color="#F18F0B"/>
<stop offset="0.36" stop-color="#EF840D"/>
<stop offset="0.48" stop-color="#EE800E"/>
<stop offset="0.6" stop-color="#ED790F"/>
<stop offset="0.77" stop-color="#EA6513"/>
<stop offset="0.98" stop-color="#E54418"/>
<stop offset="1" stop-color="#E54418"/>
</linearGradient>
</defs>
</svg>
