<svg width="1366" height="584" viewBox="0 0 1366 584" fill="none" xmlns="http://www.w3.org/2000/svg">
<path d="M1411.91 136.224C1411.91 210.919 1352.15 271.448 1278.45 271.448C1204.76 271.448 1145 210.919 1145 136.224C1145 61.5295 1204.76 1 1278.45 1C1352.15 1 1411.91 61.5295 1411.91 136.224Z" stroke="#FFC336" stroke-opacity="0.5" stroke-width="2"/>
<path d="M1201.95 368.872C1201.95 448.895 1137.93 513.744 1058.98 513.744C980.025 513.744 916 448.895 916 368.872C916 288.849 980.025 224 1058.98 224C1137.93 224 1201.95 288.849 1201.95 368.872Z" stroke="#3D9741" stroke-opacity="0.2" stroke-width="2"/>
<path d="M1441.42 251.111C1441.42 276.736 1420.91 297.498 1395.64 297.498C1370.36 297.498 1349.86 276.736 1349.86 251.111C1349.86 225.486 1370.36 204.724 1395.64 204.724C1420.91 204.724 1441.42 225.486 1441.42 251.111Z" stroke="#EC3C22" stroke-opacity="0.5"/>
<path d="M1319.34 552.809C1319.34 569.376 1306.08 582.795 1289.75 582.795C1273.41 582.795 1260.16 569.376 1260.16 552.809C1260.16 536.241 1273.41 522.822 1289.75 522.822C1306.08 522.822 1319.34 536.241 1319.34 552.809Z" stroke="#005F2D" stroke-opacity="0.2"/>
<path d="M1292.67 384.746C1292.67 412.503 1270.47 434.993 1243.09 434.993C1215.71 434.993 1193.5 412.503 1193.5 384.746C1193.5 356.99 1215.71 334.5 1243.09 334.5C1270.47 334.5 1292.67 356.99 1292.67 384.746Z" stroke="#00529C" stroke-opacity="0.5"/>
<path d="M433.907 193.224C433.907 267.919 374.146 328.448 300.454 328.448C226.761 328.448 167 267.919 167 193.224C167 118.53 226.761 58 300.454 58C374.146 58 433.907 118.53 433.907 193.224Z" stroke="#FFC336" stroke-opacity="0.5" stroke-width="2"/>
<path d="M223.952 385.872C223.952 465.895 159.927 530.744 80.9758 530.744C2.02472 530.744 -62 465.895 -62 385.872C-62 305.849 2.02472 241 80.9758 241C159.927 241 223.952 305.849 223.952 385.872Z" stroke="#3D9741" stroke-opacity="0.2" stroke-width="2"/>
<path d="M463.415 308.111C463.415 333.736 442.914 354.498 417.637 354.498C392.361 354.498 371.859 333.736 371.859 308.111C371.859 282.486 392.361 261.724 417.637 261.724C442.914 261.724 463.415 282.486 463.415 308.111Z" stroke="#EC3C22" stroke-opacity="0.5"/>
<path d="M103.477 338.791C103.477 355.358 90.2231 368.777 73.8871 368.777C57.551 368.777 44.2969 355.358 44.2969 338.791C44.2969 322.223 57.551 308.804 73.8871 308.804C90.2231 308.804 103.477 322.223 103.477 338.791Z" stroke="#005F2D" stroke-opacity="0.2"/>
<path d="M76.8142 170.729C76.8142 198.485 54.6073 220.975 27.2274 220.975C-0.152456 220.975 -22.3594 198.485 -22.3594 170.729C-22.3594 142.972 -0.152456 120.482 27.2274 120.482C54.6073 120.482 76.8142 142.972 76.8142 170.729Z" stroke="#00529C" stroke-opacity="0.5"/>
</svg>
