<svg width="72" height="47" viewBox="0 0 72 47" fill="none" xmlns="http://www.w3.org/2000/svg">
<g clip-path="url(#clip0)">
<path d="M63.7729 37.6407C58.5272 33.0127 43.4072 37.8464 41.5557 39.0805C40.8357 39.5947 39.8072 40.8289 38.8814 42.063C38.5729 42.4744 38.1614 42.9886 37.8529 43.4C37.4414 42.8858 37.03 41.7545 37.75 39.0805C38.3672 37.1265 39.7043 35.4809 41.5557 34.5553C42.2757 34.144 44.1272 33.6297 45.67 33.1155C46.8014 32.807 47.9329 32.3956 48.7557 32.0871C51.6357 31.0586 53.6929 29.6188 55.03 27.5619C55.1329 27.4591 55.1329 27.3562 55.2357 27.2534L57.4986 19.0258V18.923C57.91 16.7632 56.3672 14.3978 55.3386 12.7523C55.1329 12.4437 54.9272 12.1352 54.8243 11.9295C54.7214 11.7238 54.6186 11.5181 50.1957 7.30151L50.0929 7.19867C49.5786 6.78729 48.9614 6.47876 48.2414 6.47876C46.8014 6.5816 43.3043 7.81574 41.4529 8.74134C41.2472 8.84418 41.0414 9.04987 40.9386 9.25556C39.2929 12.4437 38.0586 12.958 37.5443 13.0608C37.4414 13.0608 37.4414 13.0608 37.3386 13.0608L37.6472 8.94703C38.0586 7.5072 41.0414 5.34746 46.4929 2.6735C47.83 2.05644 47.9329 2.05644 48.9614 2.36497C49.1672 2.46781 49.3729 2.46781 49.5786 2.57066C50.6072 2.87919 53.6929 4.52471 56.3672 6.06738C58.5272 7.30151 60.6872 8.4328 62.1272 9.15271C62.8472 9.46125 63.5672 10.0783 63.9786 10.7982L69.9443 19.8486C70.3557 20.3628 71.0757 20.5685 71.59 20.1571C72.1043 19.7457 72.31 19.0258 71.8986 18.5116L65.83 9.66694C65.11 8.63849 64.1843 7.71289 62.95 7.19867C61.6129 6.5816 59.4529 5.34746 57.3957 4.21617C53.6929 2.15928 51.3272 0.822301 50.0929 0.513767C49.8872 0.410922 49.6814 0.410922 49.4757 0.308078C48.0357 -0.103301 47.2129 -0.206145 45.2586 0.822301C40.2186 3.39342 37.3386 5.24462 36.0014 7.09582C34.6643 5.24462 31.7843 3.29057 26.7443 0.822301C24.79 -0.206145 23.9671 -0.103301 22.5272 0.308078C22.3214 0.410922 22.1157 0.410922 21.91 0.513767C20.6757 0.822301 18.31 2.15928 14.6072 4.21617C12.55 5.34746 10.39 6.5816 9.05287 7.19867C7.81858 7.71289 6.79001 8.63849 6.17286 9.66694L0.20715 18.7173C-0.204279 19.2315 0.00143572 20.0542 0.515721 20.3628C1.03001 20.7742 1.85286 20.5685 2.16144 20.0542L8.12715 11.0039C8.53858 10.284 9.25858 9.76978 9.97858 9.35841C11.4186 8.63849 13.4757 7.5072 15.7386 6.27307C18.4129 4.7304 21.4986 3.08488 22.5272 2.77635C22.7329 2.6735 22.9386 2.6735 23.1443 2.57066C24.1729 2.26213 24.2757 2.26213 25.6129 2.87919C31.0643 5.55315 34.0472 7.71289 34.4586 9.15271L34.7672 13.2665H34.6643C34.15 13.1637 32.9157 12.6494 31.27 9.35841C31.1672 9.15272 30.9614 8.94703 30.7557 8.84418C28.9043 7.91858 25.4072 6.68444 23.9671 6.5816C23.1443 6.47876 22.5272 6.89013 22.1157 7.30151L22.0129 7.40436C17.59 11.621 17.4872 11.8267 17.3843 12.0324C17.2814 12.2381 17.0757 12.5466 16.87 12.8551C15.8414 14.3978 14.2986 16.8661 14.71 19.0258V19.1286L16.9729 27.3562C16.9729 27.4591 17.0757 27.5619 17.1786 27.6647C18.5157 29.7216 20.47 31.0586 23.4529 32.1899C24.2757 32.4984 25.4072 32.807 26.5386 33.2184C28.0814 33.7326 29.83 34.2468 30.6529 34.6582C32.5043 35.5838 33.8414 37.1265 34.4586 39.0805C35.1786 41.7545 34.87 42.8858 34.3557 43.4C34.0472 42.9886 33.6357 42.4744 33.3272 42.063C32.4014 40.8289 31.3729 39.6976 30.6529 39.0805C28.9043 37.9492 13.6814 33.0127 8.53858 37.6407L0.721436 44.8398C0.20715 45.2512 0.20715 46.0739 0.618579 46.4853C0.824293 46.7939 1.13286 46.8967 1.54429 46.8967C1.85286 46.8967 2.16144 46.7939 2.36715 46.5882L10.1843 39.389C13.8871 35.9952 27.67 39.9033 29.3157 41.0346C29.83 41.3431 30.7557 42.6801 31.5786 43.5028C33.0186 45.354 33.5329 45.9711 34.3557 46.0739C34.5614 46.0739 34.7672 46.0739 34.9729 45.9711C35.4872 45.6626 36.0014 45.354 36.31 44.9426C36.6186 45.354 37.1329 45.6626 37.6472 45.9711C37.8529 46.0739 38.0586 46.0739 38.2643 46.0739C39.0872 46.0739 39.4986 45.4569 41.0414 43.5028C41.7614 42.5772 42.79 41.3431 43.2014 41.0346C44.95 39.9033 58.63 36.098 62.3329 39.389L70.15 46.5882C70.3557 46.7939 70.6643 46.8967 70.9729 46.8967C71.2814 46.8967 71.59 46.7939 71.8986 46.4853C72.31 45.9711 72.31 45.2512 71.7957 44.8398L63.7729 37.6407ZM31.4757 32.4984C30.55 32.0871 28.8014 31.47 27.0529 30.9558C25.9214 30.6472 24.8929 30.2359 24.07 30.0302C21.7043 29.2074 20.1614 28.0761 19.03 26.5335L16.87 18.5116C16.6643 17.2774 18.0014 15.2205 18.7214 14.0893C18.9272 13.6779 19.1329 13.4722 19.3386 13.1637C19.75 12.7523 21.7043 10.7982 23.5557 9.04987H23.6586C24.5843 9.15272 27.3614 10.0783 29.2129 10.9011C30.7557 13.7807 32.4014 15.3234 34.15 15.6319C34.87 15.7348 35.4872 15.6319 36.0014 15.4262C36.4129 15.6319 37.03 15.7348 37.8529 15.6319C39.6014 15.3234 41.2472 13.6779 42.79 10.9011C44.6414 9.97547 47.5214 9.04987 48.2414 9.04987C48.2414 9.04987 48.3443 9.04987 48.55 9.25556C50.4014 11.0039 52.3557 12.8551 52.7672 13.3693C52.87 13.6779 53.0757 13.8836 53.3843 14.2949C54.1043 15.4262 55.4414 17.3803 55.2357 18.7173L52.9729 26.7391C51.9443 28.179 50.2986 29.3103 47.9329 30.2359C47.11 30.5444 46.0814 30.8529 44.95 31.1615C43.2014 31.6757 41.4529 32.1899 40.5272 32.7041C38.5729 33.7326 37.03 35.2753 36.0014 37.2293C35.0757 35.0696 33.5329 33.424 31.4757 32.4984Z" fill="url(#paint0_linear)"/>
</g>
<defs>
<linearGradient id="paint0_linear" x1="68.6645" y1="54.7934" x2="4.35202" y2="6.14779" gradientUnits="userSpaceOnUse">
<stop stop-color="#E0BF55"/>
<stop offset="0.2907" stop-color="#D6A44E"/>
<stop offset="0.7694" stop-color="#CA7D44"/>
<stop offset="1" stop-color="#C66E41"/>
</linearGradient>
<clipPath id="clip0">
<rect width="72" height="47" fill="white"/>
</clipPath>
</defs>
</svg>
